%!PS-Adobe-3.0
%%BoundingBox: 0 0 612 792
%%LanguageLevel: 2
%%Creator: Grace-5.1.22
%%CreationDate: Mon Dec  7 13:34:21 2015
%%DocumentData: Clean8Bit
%%Orientation: Landscape
%%Pages: 1
%%PageOrder: Ascend
%%Title: learning_curve.agr
%%For: dpeng
%%DocumentNeededResources: (atend)
%%EndComments
%%BeginProlog
/PAGE_OFFSET_X 0 def
/PAGE_OFFSET_Y 0 def
/m {moveto} def
/l {lineto} def
/s {stroke} def
/n {newpath} def
/c {closepath} def
/RL {rlineto} def
/SLW {setlinewidth} def
/GS {gsave} def
/GR {grestore} def
/SC {setcolor} def
/SGRY {setgray} def
/SRGB {setrgbcolor} def
/SD {setdash} def
/SLC {setlinecap} def
/SLJ {setlinejoin} def
/SCS {setcolorspace} def
/FFSF {findfont setfont} def
/CC {concat} def
/PXL {n m 0 0 RL s} def
/Color0 {1.0000 1.0000 1.0000} def
/Color1 {0.0000 0.0000 0.0000} def
/Color2 {1.0000 0.0000 0.0000} def
/Color3 {0.0000 1.0000 0.0000} def
/Color4 {0.0000 0.0000 1.0000} def
/Color5 {1.0000 1.0000 0.0000} def
/Color6 {0.7373 0.5608 0.5608} def
/Color7 {0.8627 0.8627 0.8627} def
/Color8 {0.5804 0.0000 0.8275} def
/Color9 {0.0000 1.0000 1.0000} def
/Color10 {1.0000 0.0000 1.0000} def
/Color11 {1.0000 0.6471 0.0000} def
/Color12 {0.4471 0.1294 0.7373} def
/Color13 {0.4039 0.0275 0.2824} def
/Color14 {0.2510 0.8784 0.8157} def
/Color15 {0.0000 0.5451 0.0000} def
/Color16 {0.7529 0.7529 0.7529} def
/Color17 {0.5059 0.5059 0.5059} def
/Color18 {0.2588 0.2588 0.2588} def
/PTRN {
 /pat_bits exch def 
 <<
  /PaintType 2
  /PatternType 1 /TilingType 1
  /BBox[0 0 16 16]
  /XStep 16 /YStep 16
  /PaintProc {
   pop
   16 16 true [-1 0 0 -1 16 16] pat_bits imagemask
  }
 >>
 [0.0016 0 0 0.0016 0 0]
 makepattern
} def
/Pattern0 {<0000000000000000000000000000000000000000000000000000000000000000> PTRN} bind def
/Pattern1 {<ffffffffffffffffffffffffffffffffffffffffffffffffffffffffffffffff> PTRN} bind def
/Pattern2 {<eeeeffffbbbbffffeeeeffffbbbbffffeeeeffffbbbbffffeeeeffffbbbbffff> PTRN} bind def
/Pattern3 {<eeeebbbbeeeebbbbeeeebbbbeeeebbbbeeeebbbbeeeebbbbeeeebbbbeeeebbbb> PTRN} bind def
/Pattern4 {<5555aaaa5555aaaa5555aaaa5555aaaa5555aaaa5555aaaa5555aaaa5555aaaa> PTRN} bind def
/Pattern5 {<1111444411114444111144441111444411114444111144441111444411114444> PTRN} bind def
/Pattern6 {<1111000044440000111100004444000011110000444400001111000044440000> PTRN} bind def
/Pattern7 {<1010000000000000010100000000000010100000000000000101000000000000> PTRN} bind def
/Pattern8 {<0000000000000000000000000000000000000000000000000000000000000000> PTRN} bind def
/Pattern9 {<1e1e0f0f8787c3c3e1e1f0f078783c3c1e1e0f0f8787c3c3e1e1f0f078783c3c> PTRN} bind def
/Pattern10 {<7878f0f0e1e1c3c387870f0f1e1e3c3c7878f0f0e1e1c3c387870f0f1e1e3c3c> PTRN} bind def
/Pattern11 {<3333333333333333333333333333333333333333333333333333333333333333> PTRN} bind def
/Pattern12 {<ffffffff00000000ffffffff00000000ffffffff00000000ffffffff00000000> PTRN} bind def
/Pattern13 {<8181424224241818181824244242818181814242242418181818242442428181> PTRN} bind def
/Pattern14 {<8080404020201010080804040202010180804040202010100808040402020101> PTRN} bind def
/Pattern15 {<0101020204040808101020204040808001010202040408081010202040408080> PTRN} bind def
/Pattern16 {<2222222222222222222222222222222222222222222222222222222222222222> PTRN} bind def
/Pattern17 {<0000ffff000000000000ffff000000000000ffff000000000000ffff00000000> PTRN} bind def
/Pattern18 {<2222ffff222222222222ffff222222222222ffff222222222222ffff22222222> PTRN} bind def
/Pattern19 {<ffffffff33333333ffffffff33333333ffffffff33333333ffffffff33333333> PTRN} bind def
/Pattern20 {<0f0f0f0f0f0f0f0ff0f0f0f0f0f0f0f00f0f0f0f0f0f0f0ff0f0f0f0f0f0f0f0> PTRN} bind def
/Pattern21 {<ff00ff00ff00ff00ff00ff00ff00ff0000ff00ff00ff00ff00ff00ff00ff00ff> PTRN} bind def
/Pattern22 {<8001800180018001800180018001ffffffff8001800180018001800180018001> PTRN} bind def
/Pattern23 {<c003c003c003c003c003c003ffffffffffffffffc003c003c003c003c003c003> PTRN} bind def
/Pattern24 {<040404040404ffff404040404040ffff040404040404ffff404040404040ffff> PTRN} bind def
/Pattern25 {<180018001800180018001800ffffffff001800180018001800180018ffffffff> PTRN} bind def
/Pattern26 {<1111b8b87c7c3a3a1111a3a3c7c78b8b1111b8b87c7c3a3a1111a3a3c7c78b8b> PTRN} bind def
/Pattern27 {<101010102828c7c70101010182827c7c101010102828c7c70101010182827c7c> PTRN} bind def
/Pattern28 {<1c1c121211112121c1c12121111112121c1c121211112121c1c1212111111212> PTRN} bind def
/Pattern29 {<3e3e414180808080e3e31414080808083e3e414180808080e3e3141408080808> PTRN} bind def
/Pattern30 {<4848888884848383848488884848383848488888848483838484888848483838> PTRN} bind def
/Pattern31 {<03030404080808080c0c12122121c0c003030404080808080c0c12122121c0c0> PTRN} bind def
/ellipsedict 8 dict def
ellipsedict /mtrx matrix put
/EARC {
 ellipsedict begin
  /endangle exch def
  /startangle exch def
  /yrad exch def
  /xrad exch def
  /y exch def
  /x exch def
  /savematrix mtrx currentmatrix def
  x y translate
  xrad yrad scale
  0 0 1 startangle endangle arc
  savematrix setmatrix
 end
} def
/TL {
  /kcomp exch def
  /linewidth exch def
  /offset exch def
  GS
  0 offset rmoveto
  linewidth SLW
  dup stringwidth exch kcomp add exch RL s
  GR
} def
/KINIT
{
 /kvector exch def
 /kid 0 def
} def
/KPROC
{
 pop pop
 kvector kid get
 0 rmoveto
 /kid 1 kid add def
} def
/DefEncoding [
 /.notdef
 /.notdef
 /.notdef
 /.notdef
 /.notdef
 /.notdef
 /.notdef
 /.notdef
 /.notdef
 /.notdef
 /.notdef
 /.notdef
 /.notdef
 /.notdef
 /.notdef
 /.notdef
 /.notdef
 /.notdef
 /.notdef
 /.notdef
 /.notdef
 /.notdef
 /.notdef
 /.notdef
 /.notdef
 /.notdef
 /.notdef
 /.notdef
 /.notdef
 /.notdef
 /.notdef
 /.notdef
 /space
 /exclam
 /quotedbl
 /numbersign
 /dollar
 /percent
 /ampersand
 /quoteright
 /parenleft
 /parenright
 /asterisk
 /plus
 /comma
 /hyphen
 /period
 /slash
 /zero
 /one
 /two
 /three
 /four
 /five
 /six
 /seven
 /eight
 /nine
 /colon
 /semicolon
 /less
 /equal
 /greater
 /question
 /at
 /A
 /B
 /C
 /D
 /E
 /F
 /G
 /H
 /I
 /J
 /K
 /L
 /M
 /N
 /O
 /P
 /Q
 /R
 /S
 /T
 /U
 /V
 /W
 /X
 /Y
 /Z
 /bracketleft
 /backslash
 /bracketright
 /asciicircum
 /underscore
 /grave
 /a
 /b
 /c
 /d
 /e
 /f
 /g
 /h
 /i
 /j
 /k
 /l
 /m
 /n
 /o
 /p
 /q
 /r
 /s
 /t
 /u
 /v
 /w
 /x
 /y
 /z
 /braceleft
 /bar
 /braceright
 /asciitilde
 /.notdef
 /.notdef
 /.notdef
 /.notdef
 /.notdef
 /.notdef
 /.notdef
 /.notdef
 /.notdef
 /.notdef
 /.notdef
 /.notdef
 /.notdef
 /.notdef
 /.notdef
 /.notdef
 /.notdef
 /.notdef
 /.notdef
 /.notdef
 /.notdef
 /.notdef
 /.notdef
 /.notdef
 /.notdef
 /.notdef
 /.notdef
 /.notdef
 /.notdef
 /.notdef
 /.notdef
 /.notdef
 /.notdef
 /space
 /exclamdown
 /cent
 /sterling
 /currency
 /yen
 /brokenbar
 /section
 /dieresis
 /copyright
 /ordfeminine
 /guillemotleft
 /logicalnot
 /hyphen
 /registered
 /macron
 /degree
 /plusminus
 /twosuperior
 /threesuperior
 /acute
 /mu
 /paragraph
 /periodcentered
 /cedilla
 /onesuperior
 /ordmasculine
 /guillemotright
 /onequarter
 /onehalf
 /threequarters
 /questiondown
 /Agrave
 /Aacute
 /Acircumflex
 /Atilde
 /Adieresis
 /Aring
 /AE
 /Ccedilla
 /Egrave
 /Eacute
 /Ecircumflex
 /Edieresis
 /Igrave
 /Iacute
 /Icircumflex
 /Idieresis
 /Eth
 /Ntilde
 /Ograve
 /Oacute
 /Ocircumflex
 /Otilde
 /Odieresis
 /multiply
 /Oslash
 /Ugrave
 /Uacute
 /Ucircumflex
 /Udieresis
 /Yacute
 /Thorn
 /germandbls
 /agrave
 /aacute
 /acircumflex
 /atilde
 /adieresis
 /aring
 /ae
 /ccedilla
 /egrave
 /eacute
 /ecircumflex
 /edieresis
 /igrave
 /iacute
 /icircumflex
 /idieresis
 /eth
 /ntilde
 /ograve
 /oacute
 /ocircumflex
 /otilde
 /odieresis
 /divide
 /oslash
 /ugrave
 /uacute
 /ucircumflex
 /udieresis
 /yacute
 /thorn
 /ydieresis
] def
%%EndProlog
%%BeginSetup
%%EndSetup
%%Page: 1 1
PAGE_OFFSET_X PAGE_OFFSET_Y translate
612.00 612.00 scale
90 rotate
0.0 -1.0 translate
n
0.0000 0.0000 m
0.0000 1.0000 l
1.2941 1.0000 l
1.2941 0.0000 l
c
[/DeviceRGB] SCS
Color0 SC
fill
[/DeviceRGB] SCS
Color4 SC
[0.0030 0.0090 0.0150 0.0090 ] 0 SD
0.0030 SLW
0 SLC
0 SLJ
n
0.2500 0.6184 m
0.3500 0.7412 l
0.4500 0.7474 l
0.5500 0.7701 l
0.6500 0.7933 l
0.7500 0.8007 l
0.8500 0.8013 l
0.9500 0.8092 l
1.0500 0.8245 l
1.1500 0.8368 l
s
[] 0 SD
0.0030 SLW
n
0.2500 0.6284 m
0.2400 0.6184 l
0.2500 0.6084 l
0.2600 0.6184 l
0.2500 0.6284 l
c
s
n
0.3500 0.7512 m
0.3400 0.7412 l
0.3500 0.7312 l
0.3600 0.7412 l
0.3500 0.7512 l
c
s
n
0.4500 0.7574 m
0.4400 0.7474 l
0.4500 0.7374 l
0.4600 0.7474 l
0.4500 0.7574 l
c
s
n
0.5500 0.7801 m
0.5400 0.7701 l
0.5500 0.7601 l
0.5600 0.7701 l
0.5500 0.7801 l
c
s
n
0.6500 0.8033 m
0.6400 0.7933 l
0.6500 0.7833 l
0.6600 0.7933 l
0.6500 0.8033 l
c
s
n
0.7500 0.8107 m
0.7400 0.8007 l
0.7500 0.7907 l
0.7600 0.8007 l
0.7500 0.8107 l
c
s
n
0.8500 0.8113 m
0.8400 0.8013 l
0.8500 0.7913 l
0.8600 0.8013 l
0.8500 0.8113 l
c
s
n
0.9500 0.8192 m
0.9400 0.8092 l
0.9500 0.7992 l
0.9600 0.8092 l
0.9500 0.8192 l
c
s
n
1.0500 0.8345 m
1.0400 0.8245 l
1.0500 0.8145 l
1.0600 0.8245 l
1.0500 0.8345 l
c
s
n
1.1500 0.8468 m
1.1400 0.8368 l
1.1500 0.8268 l
1.1600 0.8368 l
1.1500 0.8468 l
c
s
[/DeviceRGB] SCS
Color2 SC
n
0.2500 0.4861 m
0.3500 0.5608 l
0.4500 0.6070 l
0.5500 0.6159 l
0.6500 0.6628 l
0.7500 0.6720 l
0.8500 0.6777 l
0.9500 0.6714 l
1.0500 0.6829 l
1.1500 0.6914 l
s
n 0.2500 0.4861 0.0100 0.0100 0 360 EARC s
n 0.3500 0.5608 0.0100 0.0100 0 360 EARC s
n 0.4500 0.6070 0.0100 0.0100 0 360 EARC s
n 0.5500 0.6159 0.0100 0.0100 0 360 EARC s
n 0.6500 0.6628 0.0100 0.0100 0 360 EARC s
n 0.7500 0.6720 0.0100 0.0100 0 360 EARC s
n 0.8500 0.6777 0.0100 0.0100 0 360 EARC s
n 0.9500 0.6714 0.0100 0.0100 0 360 EARC s
n 1.0500 0.6829 0.0100 0.0100 0 360 EARC s
n 1.1500 0.6914 0.0100 0.0100 0 360 EARC s
[/DeviceRGB] SCS
Color6 SC
[0.0210 0.0090 ] 0 SD
0.0030 SLW
n
0.2500 0.1744 m
0.3500 0.3952 l
0.4500 0.4951 l
0.5500 0.5408 l
0.6500 0.5518 l
0.7500 0.5662 l
0.8500 0.5746 l
0.9500 0.5700 l
1.0500 0.5751 l
1.1500 0.5738 l
s
[] 0 SD
0.0030 SLW
n
0.2429 0.1673 m
0.2571 0.1815 l
s
n
0.2429 0.1815 m
0.2571 0.1673 l
s
n
0.3429 0.3881 m
0.3571 0.4022 l
s
n
0.3429 0.4022 m
0.3571 0.3881 l
s
n
0.4429 0.4881 m
0.4571 0.5022 l
s
n
0.4429 0.5022 m
0.4571 0.4881 l
s
n
0.5429 0.5337 m
0.5571 0.5479 l
s
n
0.5429 0.5479 m
0.5571 0.5337 l
s
n
0.6429 0.5448 m
0.6571 0.5589 l
s
n
0.6429 0.5589 m
0.6571 0.5448 l
s
n
0.7429 0.5592 m
0.7571 0.5733 l
s
n
0.7429 0.5733 m
0.7571 0.5592 l
s
n
0.8429 0.5675 m
0.8571 0.5816 l
s
n
0.8429 0.5816 m
0.8571 0.5675 l
s
n
0.9429 0.5629 m
0.9571 0.5771 l
s
n
0.9429 0.5771 m
0.9571 0.5629 l
s
n
1.0429 0.5681 m
1.0571 0.5822 l
s
n
1.0429 0.5822 m
1.0571 0.5681 l
s
n
1.1429 0.5668 m
1.1571 0.5809 l
s
n
1.1429 0.5809 m
1.1571 0.5668 l
s
[/DeviceRGB] SCS
Color1 SC
[] 0 SD
0.0015 SLW
n
0.1500 0.1500 m
1.1500 0.1500 l
s
n
0.1500 0.8500 m
1.1500 0.8500 l
s
n
0.2500 0.1500 m
0.2500 0.1600 l
s
n
0.2500 0.8500 m
0.2500 0.8400 l
s
n
0.4500 0.1500 m
0.4500 0.1600 l
s
n
0.4500 0.8500 m
0.4500 0.8400 l
s
n
0.6500 0.1500 m
0.6500 0.1600 l
s
n
0.6500 0.8500 m
0.6500 0.8400 l
s
n
0.8500 0.1500 m
0.8500 0.1600 l
s
n
0.8500 0.8500 m
0.8500 0.8400 l
s
n
1.0500 0.1500 m
1.0500 0.1600 l
s
n
1.0500 0.8500 m
1.0500 0.8400 l
s
n
0.1500 0.1500 m
0.1500 0.1700 l
s
n
0.1500 0.8500 m
0.1500 0.8300 l
s
n
0.3500 0.1500 m
0.3500 0.1700 l
s
n
0.3500 0.8500 m
0.3500 0.8300 l
s
n
0.5500 0.1500 m
0.5500 0.1700 l
s
n
0.5500 0.8500 m
0.5500 0.8300 l
s
n
0.7500 0.1500 m
0.7500 0.1700 l
s
n
0.7500 0.8500 m
0.7500 0.8300 l
s
n
0.9500 0.1500 m
0.9500 0.1700 l
s
n
0.9500 0.8500 m
0.9500 0.8300 l
s
n
1.1500 0.1500 m
1.1500 0.1700 l
s
n
1.1500 0.8500 m
1.1500 0.8300 l
s
/Times-Roman findfont
dup length dict begin
 {1 index /FID ne {def} {pop pop} ifelse} forall
 /Encoding DefEncoding def
 currentdict
end
/Font21 exch definefont pop
/Font21 FFSF
0.1433 0.1212 m
GS
[0.0280 0.0000 0.0000 0.0280 0 0] CC
(0) show
GR
/Font21 FFSF
0.3327 0.1212 m
GS
[0.0280 0.0000 0.0000 0.0280 0 0] CC
(0.2) show
GR
/Font21 FFSF
0.5327 0.1212 m
GS
[0.0280 0.0000 0.0000 0.0280 0 0] CC
(0.4) show
GR
/Font21 FFSF
0.7329 0.1208 m
GS
[0.0280 0.0000 0.0000 0.0280 0 0] CC
(0.6) show
GR
/Font21 FFSF
0.9331 0.1212 m
GS
[0.0280 0.0000 0.0000 0.0280 0 0] CC
(0.8) show
GR
/Font21 FFSF
1.1445 0.1212 m
GS
[0.0280 0.0000 0.0000 0.0280 0 0] CC
(1) show
GR
/Font21 FFSF
0.4853 0.0912 m
GS
[0.0280 0.0000 0.0000 0.0280 0 0] CC
(Fraction of training data used) show
GR
n
0.1500 0.1500 m
0.1500 0.8500 l
s
n
1.1500 0.1500 m
1.1500 0.8500 l
s
n
0.1500 0.1640 m
0.1600 0.1640 l
s
n
1.1500 0.1640 m
1.1400 0.1640 l
s
n
0.1500 0.3040 m
0.1600 0.3040 l
s
n
1.1500 0.3040 m
1.1400 0.3040 l
s
n
0.1500 0.4440 m
0.1600 0.4440 l
s
n
1.1500 0.4440 m
1.1400 0.4440 l
s
n
0.1500 0.5840 m
0.1600 0.5840 l
s
n
1.1500 0.5840 m
1.1400 0.5840 l
s
n
0.1500 0.7240 m
0.1600 0.7240 l
s
n
1.1500 0.7240 m
1.1400 0.7240 l
s
n
0.1500 0.2340 m
0.1700 0.2340 l
s
n
1.1500 0.2340 m
1.1300 0.2340 l
s
n
0.1500 0.3740 m
0.1700 0.3740 l
s
n
1.1500 0.3740 m
1.1300 0.3740 l
s
n
0.1500 0.5140 m
0.1700 0.5140 l
s
n
1.1500 0.5140 m
1.1300 0.5140 l
s
n
0.1500 0.6540 m
0.1700 0.6540 l
s
n
1.1500 0.6540 m
1.1300 0.6540 l
s
n
0.1500 0.7940 m
0.1700 0.7940 l
s
n
1.1500 0.7940 m
1.1300 0.7940 l
s
/Font21 FFSF
0.0922 0.2246 m
GS
[0.0280 0.0000 0.0000 0.0280 0 0] CC
(0.86) show
GR
/Font21 FFSF
0.0788 0.3646 m
GS
[0.0280 0.0000 0.0000 0.0280 0 0] CC
(0.865) show
GR
/Font21 FFSF
0.0925 0.5048 m
GS
[0.0280 0.0000 0.0000 0.0280 0 0] CC
(0.87) show
GR
/Font21 FFSF
0.0788 0.6446 m
GS
[0.0280 0.0000 0.0000 0.0280 0 0] CC
(0.875) show
GR
/Font21 FFSF
0.0925 0.7848 m
GS
[0.0280 0.0000 0.0000 0.0280 0 0] CC
(0.88) show
GR
/Font21 FFSF
0.0684 0.4386 m
GS
[0.0000 0.0280 -0.0280 0.0000 0 0] CC
(ROC AUC) show
GR
n
0.1500 0.1500 m
0.1500 0.8500 l
1.1500 0.8500 l
1.1500 0.1500 l
0.1500 0.1500 l
c
s
n
0.7000 0.4000 m
0.7000 0.2894 l
1.0146 0.2894 l
1.0146 0.4000 l
c
[/DeviceRGB] SCS
Color0 SC
fill
[/DeviceRGB] SCS
Color1 SC
n
0.7000 0.4000 m
0.7000 0.2894 l
1.0146 0.2894 l
1.0146 0.4000 l
0.7000 0.4000 l
c
s
/Font21 FFSF
0.7815 0.3708 m
GS
[0.0280 0.0000 0.0000 0.0280 0 0] CC
(Gradient Boosting) show
GR
[/DeviceRGB] SCS
Color4 SC
[0.0030 0.0090 0.0150 0.0090 ] 0 SD
0.0030 SLW
n
0.7215 0.3773 m
0.7615 0.3773 l
s
[] 0 SD
0.0030 SLW
n
0.7215 0.3873 m
0.7115 0.3773 l
0.7215 0.3673 l
0.7315 0.3773 l
0.7215 0.3873 l
c
s
n
0.7615 0.3873 m
0.7515 0.3773 l
0.7615 0.3673 l
0.7715 0.3773 l
0.7615 0.3873 l
c
s
/Font21 FFSF
[/DeviceRGB] SCS
Color1 SC
0.7815 0.3353 m
GS
[0.0280 0.0000 0.0000 0.0280 0 0] CC
(Random Forest) show
GR
[/DeviceRGB] SCS
Color2 SC
n
0.7215 0.3447 m
0.7615 0.3447 l
s
n 0.7215 0.3447 0.0100 0.0100 0 360 EARC s
n 0.7615 0.3447 0.0100 0.0100 0 360 EARC s
/Font21 FFSF
[/DeviceRGB] SCS
Color1 SC
0.7815 0.3057 m
GS
[0.0280 0.0000 0.0000 0.0280 0 0] CC
(Logistic Regression) show
GR
[/DeviceRGB] SCS
Color6 SC
[0.0210 0.0090 ] 0 SD
0.0030 SLW
n
0.7215 0.3122 m
0.7615 0.3122 l
s
[] 0 SD
0.0030 SLW
n
0.7144 0.3051 m
0.7286 0.3192 l
s
n
0.7144 0.3192 m
0.7286 0.3051 l
s
n
0.7544 0.3051 m
0.7686 0.3192 l
s
n
0.7544 0.3192 m
0.7686 0.3051 l
s
showpage
%%PageTrailer
%%Trailer
%%DocumentNeededResources: font Times-Roman
%%EOF
