#percentage auc f1_n f1_p
0.100000 0.869003 0.629652 0.921846
0.200000 0.871672 0.644356 0.923158
0.300000 0.873321 0.645206 0.923364
0.400000 0.873639 0.645886 0.922902
0.500000 0.875314 0.650325 0.924105
0.600000 0.875644 0.651836 0.924187
0.700000 0.875848 0.646723 0.923507
0.800000 0.875622 0.648271 0.923864
0.900000 0.876032 0.649721 0.923888
1.000000 0.876337 0.651341 0.924272
