%!PS-Adobe-3.0
%%BoundingBox: 0 0 612 792
%%LanguageLevel: 2
%%Creator: Grace-5.1.22
%%CreationDate: Fri Dec 11 15:42:20 2015
%%DocumentData: Clean8Bit
%%Orientation: Landscape
%%Pages: 1
%%PageOrder: Ascend
%%Title: convergence.agr
%%For: dpeng
%%DocumentNeededResources: (atend)
%%EndComments
%%BeginProlog
/PAGE_OFFSET_X 0 def
/PAGE_OFFSET_Y 0 def
/m {moveto} def
/l {lineto} def
/s {stroke} def
/n {newpath} def
/c {closepath} def
/RL {rlineto} def
/SLW {setlinewidth} def
/GS {gsave} def
/GR {grestore} def
/SC {setcolor} def
/SGRY {setgray} def
/SRGB {setrgbcolor} def
/SD {setdash} def
/SLC {setlinecap} def
/SLJ {setlinejoin} def
/SCS {setcolorspace} def
/FFSF {findfont setfont} def
/CC {concat} def
/PXL {n m 0 0 RL s} def
/Color0 {1.0000 1.0000 1.0000} def
/Color1 {0.0000 0.0000 0.0000} def
/Color2 {1.0000 0.0000 0.0000} def
/Color3 {0.0000 1.0000 0.0000} def
/Color4 {0.0000 0.0000 1.0000} def
/Color5 {1.0000 1.0000 0.0000} def
/Color6 {0.7373 0.5608 0.5608} def
/Color7 {0.8627 0.8627 0.8627} def
/Color8 {0.5804 0.0000 0.8275} def
/Color9 {0.0000 1.0000 1.0000} def
/Color10 {1.0000 0.0000 1.0000} def
/Color11 {1.0000 0.6471 0.0000} def
/Color12 {0.4471 0.1294 0.7373} def
/Color13 {0.4039 0.0275 0.2824} def
/Color14 {0.2510 0.8784 0.8157} def
/Color15 {0.0000 0.5451 0.0000} def
/Color16 {0.7529 0.7529 0.7529} def
/Color17 {0.5059 0.5059 0.5059} def
/Color18 {0.2588 0.2588 0.2588} def
/PTRN {
 /pat_bits exch def 
 <<
  /PaintType 2
  /PatternType 1 /TilingType 1
  /BBox[0 0 16 16]
  /XStep 16 /YStep 16
  /PaintProc {
   pop
   16 16 true [-1 0 0 -1 16 16] pat_bits imagemask
  }
 >>
 [0.0016 0 0 0.0016 0 0]
 makepattern
} def
/Pattern0 {<0000000000000000000000000000000000000000000000000000000000000000> PTRN} bind def
/Pattern1 {<ffffffffffffffffffffffffffffffffffffffffffffffffffffffffffffffff> PTRN} bind def
/Pattern2 {<eeeeffffbbbbffffeeeeffffbbbbffffeeeeffffbbbbffffeeeeffffbbbbffff> PTRN} bind def
/Pattern3 {<eeeebbbbeeeebbbbeeeebbbbeeeebbbbeeeebbbbeeeebbbbeeeebbbbeeeebbbb> PTRN} bind def
/Pattern4 {<5555aaaa5555aaaa5555aaaa5555aaaa5555aaaa5555aaaa5555aaaa5555aaaa> PTRN} bind def
/Pattern5 {<1111444411114444111144441111444411114444111144441111444411114444> PTRN} bind def
/Pattern6 {<1111000044440000111100004444000011110000444400001111000044440000> PTRN} bind def
/Pattern7 {<1010000000000000010100000000000010100000000000000101000000000000> PTRN} bind def
/Pattern8 {<0000000000000000000000000000000000000000000000000000000000000000> PTRN} bind def
/Pattern9 {<1e1e0f0f8787c3c3e1e1f0f078783c3c1e1e0f0f8787c3c3e1e1f0f078783c3c> PTRN} bind def
/Pattern10 {<7878f0f0e1e1c3c387870f0f1e1e3c3c7878f0f0e1e1c3c387870f0f1e1e3c3c> PTRN} bind def
/Pattern11 {<3333333333333333333333333333333333333333333333333333333333333333> PTRN} bind def
/Pattern12 {<ffffffff00000000ffffffff00000000ffffffff00000000ffffffff00000000> PTRN} bind def
/Pattern13 {<8181424224241818181824244242818181814242242418181818242442428181> PTRN} bind def
/Pattern14 {<8080404020201010080804040202010180804040202010100808040402020101> PTRN} bind def
/Pattern15 {<0101020204040808101020204040808001010202040408081010202040408080> PTRN} bind def
/Pattern16 {<2222222222222222222222222222222222222222222222222222222222222222> PTRN} bind def
/Pattern17 {<0000ffff000000000000ffff000000000000ffff000000000000ffff00000000> PTRN} bind def
/Pattern18 {<2222ffff222222222222ffff222222222222ffff222222222222ffff22222222> PTRN} bind def
/Pattern19 {<ffffffff33333333ffffffff33333333ffffffff33333333ffffffff33333333> PTRN} bind def
/Pattern20 {<0f0f0f0f0f0f0f0ff0f0f0f0f0f0f0f00f0f0f0f0f0f0f0ff0f0f0f0f0f0f0f0> PTRN} bind def
/Pattern21 {<ff00ff00ff00ff00ff00ff00ff00ff0000ff00ff00ff00ff00ff00ff00ff00ff> PTRN} bind def
/Pattern22 {<8001800180018001800180018001ffffffff8001800180018001800180018001> PTRN} bind def
/Pattern23 {<c003c003c003c003c003c003ffffffffffffffffc003c003c003c003c003c003> PTRN} bind def
/Pattern24 {<040404040404ffff404040404040ffff040404040404ffff404040404040ffff> PTRN} bind def
/Pattern25 {<180018001800180018001800ffffffff001800180018001800180018ffffffff> PTRN} bind def
/Pattern26 {<1111b8b87c7c3a3a1111a3a3c7c78b8b1111b8b87c7c3a3a1111a3a3c7c78b8b> PTRN} bind def
/Pattern27 {<101010102828c7c70101010182827c7c101010102828c7c70101010182827c7c> PTRN} bind def
/Pattern28 {<1c1c121211112121c1c12121111112121c1c121211112121c1c1212111111212> PTRN} bind def
/Pattern29 {<3e3e414180808080e3e31414080808083e3e414180808080e3e3141408080808> PTRN} bind def
/Pattern30 {<4848888884848383848488884848383848488888848483838484888848483838> PTRN} bind def
/Pattern31 {<03030404080808080c0c12122121c0c003030404080808080c0c12122121c0c0> PTRN} bind def
/ellipsedict 8 dict def
ellipsedict /mtrx matrix put
/EARC {
 ellipsedict begin
  /endangle exch def
  /startangle exch def
  /yrad exch def
  /xrad exch def
  /y exch def
  /x exch def
  /savematrix mtrx currentmatrix def
  x y translate
  xrad yrad scale
  0 0 1 startangle endangle arc
  savematrix setmatrix
 end
} def
/TL {
  /kcomp exch def
  /linewidth exch def
  /offset exch def
  GS
  0 offset rmoveto
  linewidth SLW
  dup stringwidth exch kcomp add exch RL s
  GR
} def
/KINIT
{
 /kvector exch def
 /kid 0 def
} def
/KPROC
{
 pop pop
 kvector kid get
 0 rmoveto
 /kid 1 kid add def
} def
/DefEncoding [
 /.notdef
 /.notdef
 /.notdef
 /.notdef
 /.notdef
 /.notdef
 /.notdef
 /.notdef
 /.notdef
 /.notdef
 /.notdef
 /.notdef
 /.notdef
 /.notdef
 /.notdef
 /.notdef
 /.notdef
 /.notdef
 /.notdef
 /.notdef
 /.notdef
 /.notdef
 /.notdef
 /.notdef
 /.notdef
 /.notdef
 /.notdef
 /.notdef
 /.notdef
 /.notdef
 /.notdef
 /.notdef
 /space
 /exclam
 /quotedbl
 /numbersign
 /dollar
 /percent
 /ampersand
 /quoteright
 /parenleft
 /parenright
 /asterisk
 /plus
 /comma
 /hyphen
 /period
 /slash
 /zero
 /one
 /two
 /three
 /four
 /five
 /six
 /seven
 /eight
 /nine
 /colon
 /semicolon
 /less
 /equal
 /greater
 /question
 /at
 /A
 /B
 /C
 /D
 /E
 /F
 /G
 /H
 /I
 /J
 /K
 /L
 /M
 /N
 /O
 /P
 /Q
 /R
 /S
 /T
 /U
 /V
 /W
 /X
 /Y
 /Z
 /bracketleft
 /backslash
 /bracketright
 /asciicircum
 /underscore
 /grave
 /a
 /b
 /c
 /d
 /e
 /f
 /g
 /h
 /i
 /j
 /k
 /l
 /m
 /n
 /o
 /p
 /q
 /r
 /s
 /t
 /u
 /v
 /w
 /x
 /y
 /z
 /braceleft
 /bar
 /braceright
 /asciitilde
 /.notdef
 /.notdef
 /.notdef
 /.notdef
 /.notdef
 /.notdef
 /.notdef
 /.notdef
 /.notdef
 /.notdef
 /.notdef
 /.notdef
 /.notdef
 /.notdef
 /.notdef
 /.notdef
 /.notdef
 /.notdef
 /.notdef
 /.notdef
 /.notdef
 /.notdef
 /.notdef
 /.notdef
 /.notdef
 /.notdef
 /.notdef
 /.notdef
 /.notdef
 /.notdef
 /.notdef
 /.notdef
 /.notdef
 /space
 /exclamdown
 /cent
 /sterling
 /currency
 /yen
 /brokenbar
 /section
 /dieresis
 /copyright
 /ordfeminine
 /guillemotleft
 /logicalnot
 /hyphen
 /registered
 /macron
 /degree
 /plusminus
 /twosuperior
 /threesuperior
 /acute
 /mu
 /paragraph
 /periodcentered
 /cedilla
 /onesuperior
 /ordmasculine
 /guillemotright
 /onequarter
 /onehalf
 /threequarters
 /questiondown
 /Agrave
 /Aacute
 /Acircumflex
 /Atilde
 /Adieresis
 /Aring
 /AE
 /Ccedilla
 /Egrave
 /Eacute
 /Ecircumflex
 /Edieresis
 /Igrave
 /Iacute
 /Icircumflex
 /Idieresis
 /Eth
 /Ntilde
 /Ograve
 /Oacute
 /Ocircumflex
 /Otilde
 /Odieresis
 /multiply
 /Oslash
 /Ugrave
 /Uacute
 /Ucircumflex
 /Udieresis
 /Yacute
 /Thorn
 /germandbls
 /agrave
 /aacute
 /acircumflex
 /atilde
 /adieresis
 /aring
 /ae
 /ccedilla
 /egrave
 /eacute
 /ecircumflex
 /edieresis
 /igrave
 /iacute
 /icircumflex
 /idieresis
 /eth
 /ntilde
 /ograve
 /oacute
 /ocircumflex
 /otilde
 /odieresis
 /divide
 /oslash
 /ugrave
 /uacute
 /ucircumflex
 /udieresis
 /yacute
 /thorn
 /ydieresis
] def
%%EndProlog
%%BeginSetup
%%EndSetup
%%Page: 1 1
PAGE_OFFSET_X PAGE_OFFSET_Y translate
612.00 612.00 scale
90 rotate
0.0 -1.0 translate
n
0.0000 0.0000 m
0.0000 1.0000 l
1.2941 1.0000 l
1.2941 0.0000 l
c
[/DeviceRGB] SCS
Color0 SC
fill
[/DeviceRGB] SCS
Color1 SC
[] 0 SD
0.0030 SLW
0 SLC
0 SLJ
n
0.1700 0.2493 m
0.1900 0.4197 l
0.2100 0.4903 l
0.2300 0.5189 l
0.2500 0.5510 l
0.2700 0.5708 l
0.2900 0.5854 l
0.3100 0.5929 l
0.3300 0.5951 l
0.3500 0.5984 l
0.3700 0.6093 l
0.3900 0.6146 l
0.4100 0.6209 l
0.4300 0.6239 l
0.4500 0.6254 l
0.4700 0.6260 l
0.4900 0.6280 l
0.5100 0.6325 l
0.5300 0.6311 l
0.5500 0.6288 l
0.5700 0.6301 l
0.5900 0.6302 l
0.6100 0.6309 l
0.6300 0.6336 l
0.6500 0.6344 l
0.6700 0.6340 l
0.6900 0.6348 l
0.7100 0.6365 l
0.7300 0.6386 l
0.7500 0.6401 l
0.7700 0.6400 l
0.7900 0.6409 l
0.8100 0.6423 l
0.8300 0.6434 l
0.8500 0.6428 l
0.8700 0.6440 l
0.8900 0.6438 l
0.9100 0.6447 l
0.9300 0.6460 l
0.9500 0.6453 l
0.9700 0.6460 l
0.9900 0.6470 l
1.0100 0.6471 l
1.0300 0.6473 l
1.0500 0.6470 l
1.0700 0.6463 l
1.0900 0.6479 l
1.1100 0.6479 l
1.1300 0.6480 l
1.1500 0.6489 l
s
n
0.1615 0.2408 m
0.1615 0.2578 l
0.1785 0.2578 l
0.1785 0.2408 l
0.1615 0.2408 l
c
s
n
0.2815 0.5769 m
0.2815 0.5939 l
0.2985 0.5939 l
0.2985 0.5769 l
0.2815 0.5769 l
c
s
n
0.4015 0.6124 m
0.4015 0.6294 l
0.4185 0.6294 l
0.4185 0.6124 l
0.4015 0.6124 l
c
s
n
0.5215 0.6226 m
0.5215 0.6396 l
0.5385 0.6396 l
0.5385 0.6226 l
0.5215 0.6226 l
c
s
n
0.6415 0.6259 m
0.6415 0.6429 l
0.6585 0.6429 l
0.6585 0.6259 l
0.6415 0.6259 l
c
s
n
0.7615 0.6315 m
0.7615 0.6485 l
0.7785 0.6485 l
0.7785 0.6315 l
0.7615 0.6315 l
c
s
n
0.8815 0.6353 m
0.8815 0.6523 l
0.8985 0.6523 l
0.8985 0.6353 l
0.8815 0.6353 l
c
s
n
1.0015 0.6386 m
1.0015 0.6556 l
1.0185 0.6556 l
1.0185 0.6386 l
1.0015 0.6386 l
c
s
n
1.1215 0.6395 m
1.1215 0.6565 l
1.1385 0.6565 l
1.1385 0.6395 l
1.1215 0.6395 l
c
s
[/DeviceRGB] SCS
Color2 SC
[0.0030 0.0090 ] 0 SD
0.0030 SLW
n
0.1700 0.2584 m
0.1900 0.4355 l
0.2100 0.5138 l
0.2300 0.5340 l
0.2500 0.5687 l
0.2700 0.5887 l
0.2900 0.6042 l
0.3100 0.6108 l
0.3300 0.6255 l
0.3500 0.6318 l
0.3700 0.6345 l
0.3900 0.6395 l
0.4100 0.6432 l
0.4300 0.6482 l
0.4500 0.6501 l
0.4700 0.6515 l
0.4900 0.6519 l
0.5100 0.6521 l
0.5300 0.6539 l
0.5500 0.6536 l
0.5700 0.6551 l
0.5900 0.6600 l
0.6100 0.6602 l
0.6300 0.6596 l
0.6500 0.6603 l
0.6700 0.6590 l
0.6900 0.6594 l
0.7100 0.6580 l
0.7300 0.6590 l
0.7500 0.6592 l
0.7700 0.6618 l
0.7900 0.6623 l
0.8100 0.6623 l
0.8300 0.6628 l
0.8500 0.6627 l
0.8700 0.6648 l
0.8900 0.6671 l
0.9100 0.6668 l
0.9300 0.6664 l
0.9500 0.6656 l
0.9700 0.6645 l
0.9900 0.6650 l
1.0100 0.6648 l
1.0300 0.6635 l
1.0500 0.6634 l
1.0700 0.6645 l
1.0900 0.6643 l
1.1100 0.6647 l
1.1300 0.6644 l
1.1500 0.6648 l
s
[] 0 SD
0.0030 SLW
n
0.1615 0.2499 m
0.1615 0.2669 l
0.1785 0.2669 l
0.1785 0.2499 l
0.1615 0.2499 l
c
s
n
0.2815 0.5957 m
0.2815 0.6127 l
0.2985 0.6127 l
0.2985 0.5957 l
0.2815 0.5957 l
c
s
n
0.4015 0.6347 m
0.4015 0.6517 l
0.4185 0.6517 l
0.4185 0.6347 l
0.4015 0.6347 l
c
s
n
0.5215 0.6454 m
0.5215 0.6624 l
0.5385 0.6624 l
0.5385 0.6454 l
0.5215 0.6454 l
c
s
n
0.6415 0.6518 m
0.6415 0.6688 l
0.6585 0.6688 l
0.6585 0.6518 l
0.6415 0.6518 l
c
s
n
0.7615 0.6533 m
0.7615 0.6703 l
0.7785 0.6703 l
0.7785 0.6533 l
0.7615 0.6533 l
c
s
n
0.8815 0.6586 m
0.8815 0.6756 l
0.8985 0.6756 l
0.8985 0.6586 l
0.8815 0.6586 l
c
s
n
1.0015 0.6563 m
1.0015 0.6733 l
1.0185 0.6733 l
1.0185 0.6563 l
1.0015 0.6563 l
c
s
n
1.1215 0.6559 m
1.1215 0.6729 l
1.1385 0.6729 l
1.1385 0.6559 l
1.1215 0.6559 l
c
s
[/DeviceRGB] SCS
Color3 SC
[0.0030 0.0090 0.0150 0.0090 ] 0 SD
0.0030 SLW
n
0.1700 0.5788 m
0.1900 0.6527 l
0.2100 0.6759 l
0.2300 0.6817 l
0.2500 0.6899 l
0.2700 0.6876 l
0.2900 0.6936 l
0.3100 0.6913 l
0.3300 0.6879 l
0.3500 0.6912 l
0.3700 0.6957 l
0.3900 0.6987 l
0.4100 0.6966 l
0.4300 0.6988 l
0.4500 0.6997 l
0.4700 0.6982 l
0.4900 0.6975 l
0.5100 0.6974 l
0.5300 0.6960 l
0.5500 0.6948 l
0.5700 0.6932 l
0.5900 0.6941 l
0.6100 0.6931 l
0.6300 0.6909 l
0.6500 0.6911 l
0.6700 0.6894 l
0.6900 0.6904 l
0.7100 0.6904 l
0.7300 0.6893 l
0.7500 0.6887 l
0.7700 0.6897 l
0.7900 0.6885 l
0.8100 0.6882 l
0.8300 0.6874 l
0.8500 0.6882 l
0.8700 0.6881 l
0.8900 0.6882 l
0.9100 0.6889 l
0.9300 0.6890 l
0.9500 0.6893 l
0.9700 0.6909 l
0.9900 0.6907 l
1.0100 0.6865 l
1.0300 0.6859 l
1.0500 0.6857 l
1.0700 0.6875 l
1.0900 0.6865 l
1.1100 0.6852 l
1.1300 0.6833 l
1.1500 0.6818 l
s
[] 0 SD
0.0030 SLW
n
0.1700 0.5888 m
0.1600 0.5788 l
0.1700 0.5688 l
0.1800 0.5788 l
0.1700 0.5888 l
c
s
n
0.2900 0.7036 m
0.2800 0.6936 l
0.2900 0.6836 l
0.3000 0.6936 l
0.2900 0.7036 l
c
s
n
0.4100 0.7066 m
0.4000 0.6966 l
0.4100 0.6866 l
0.4200 0.6966 l
0.4100 0.7066 l
c
s
n
0.5300 0.7060 m
0.5200 0.6960 l
0.5300 0.6860 l
0.5400 0.6960 l
0.5300 0.7060 l
c
s
n
0.6500 0.7011 m
0.6400 0.6911 l
0.6500 0.6811 l
0.6600 0.6911 l
0.6500 0.7011 l
c
s
n
0.7700 0.6997 m
0.7600 0.6897 l
0.7700 0.6797 l
0.7800 0.6897 l
0.7700 0.6997 l
c
s
n
0.8900 0.6982 m
0.8800 0.6882 l
0.8900 0.6782 l
0.9000 0.6882 l
0.8900 0.6982 l
c
s
n
1.0100 0.6965 m
1.0000 0.6865 l
1.0100 0.6765 l
1.0200 0.6865 l
1.0100 0.6965 l
c
s
n
1.1300 0.6933 m
1.1200 0.6833 l
1.1300 0.6733 l
1.1400 0.6833 l
1.1300 0.6933 l
c
s
[/DeviceRGB] SCS
Color4 SC
[0.0030 0.0090 0.0210 0.0090 ] 0 SD
0.0030 SLW
n
0.1700 0.5885 m
0.1900 0.6649 l
0.2100 0.6967 l
0.2300 0.7048 l
0.2500 0.7125 l
0.2700 0.7189 l
0.2900 0.7245 l
0.3100 0.7264 l
0.3300 0.7290 l
0.3500 0.7316 l
0.3700 0.7313 l
0.3900 0.7325 l
0.4100 0.7310 l
0.4300 0.7315 l
0.4500 0.7310 l
0.4700 0.7310 l
0.4900 0.7299 l
0.5100 0.7295 l
0.5300 0.7295 l
0.5500 0.7294 l
0.5700 0.7297 l
0.5900 0.7295 l
0.6100 0.7296 l
0.6300 0.7289 l
0.6500 0.7278 l
0.6700 0.7280 l
0.6900 0.7272 l
0.7100 0.7266 l
0.7300 0.7263 l
0.7500 0.7259 l
0.7700 0.7262 l
0.7900 0.7265 l
0.8100 0.7270 l
0.8300 0.7263 l
0.8500 0.7261 l
0.8700 0.7261 l
0.8900 0.7254 l
0.9100 0.7259 l
0.9300 0.7243 l
0.9500 0.7246 l
0.9700 0.7241 l
0.9900 0.7238 l
1.0100 0.7241 l
1.0300 0.7232 l
1.0500 0.7232 l
1.0700 0.7231 l
1.0900 0.7233 l
1.1100 0.7243 l
1.1300 0.7235 l
1.1500 0.7220 l
s
[] 0 SD
0.0030 SLW
n 0.1700 0.5885 0.0100 0.0100 0 360 EARC s
n 0.2900 0.7245 0.0100 0.0100 0 360 EARC s
n 0.4100 0.7310 0.0100 0.0100 0 360 EARC s
n 0.5300 0.7295 0.0100 0.0100 0 360 EARC s
n 0.6500 0.7278 0.0100 0.0100 0 360 EARC s
n 0.7700 0.7262 0.0100 0.0100 0 360 EARC s
n 0.8900 0.7254 0.0100 0.0100 0 360 EARC s
n 1.0100 0.7241 0.0100 0.0100 0 360 EARC s
n 1.1300 0.7235 0.0100 0.0100 0 360 EARC s
[/DeviceRGB] SCS
Color10 SC
[0.0150 0.0090 0.0030 0.0090 0.0150 0.0090 ] 0 SD
0.0030 SLW
n
0.1700 0.5494 m
0.1900 0.6539 l
0.2100 0.6857 l
0.2300 0.7005 l
0.2500 0.7042 l
0.2700 0.7095 l
0.2900 0.7143 l
0.3100 0.7233 l
0.3300 0.7257 l
0.3500 0.7282 l
0.3700 0.7281 l
0.3900 0.7286 l
0.4100 0.7281 l
0.4300 0.7286 l
0.4500 0.7278 l
0.4700 0.7278 l
0.4900 0.7281 l
0.5100 0.7278 l
0.5300 0.7281 l
0.5500 0.7287 l
0.5700 0.7275 l
0.5900 0.7278 l
0.6100 0.7280 l
0.6300 0.7274 l
0.6500 0.7260 l
0.6700 0.7248 l
0.6900 0.7254 l
0.7100 0.7247 l
0.7300 0.7238 l
0.7500 0.7243 l
0.7700 0.7245 l
0.7900 0.7253 l
0.8100 0.7245 l
0.8300 0.7236 l
0.8500 0.7229 l
0.8700 0.7223 l
0.8900 0.7223 l
0.9100 0.7221 l
0.9300 0.7220 l
0.9500 0.7226 l
0.9700 0.7228 l
0.9900 0.7227 l
1.0100 0.7216 l
1.0300 0.7208 l
1.0500 0.7205 l
1.0700 0.7197 l
1.0900 0.7187 l
1.1100 0.7196 l
1.1300 0.7193 l
1.1500 0.7194 l
s
[] 0 SD
0.0030 SLW
n 0.1700 0.5494 0.0100 0.0100 0 360 EARC s
n 0.2900 0.7143 0.0100 0.0100 0 360 EARC s
n 0.4100 0.7281 0.0100 0.0100 0 360 EARC s
n 0.5300 0.7281 0.0100 0.0100 0 360 EARC s
n 0.6500 0.7260 0.0100 0.0100 0 360 EARC s
n 0.7700 0.7245 0.0100 0.0100 0 360 EARC s
n 0.8900 0.7223 0.0100 0.0100 0 360 EARC s
n 1.0100 0.7216 0.0100 0.0100 0 360 EARC s
n 1.1300 0.7193 0.0100 0.0100 0 360 EARC s
[/DeviceRGB] SCS
Color1 SC
[] 0 SD
0.0015 SLW
n
0.1500 0.1500 m
1.1500 0.1500 l
s
n
0.1500 0.8500 m
1.1500 0.8500 l
s
n
0.2500 0.1500 m
0.2500 0.1600 l
s
n
0.2500 0.8500 m
0.2500 0.8400 l
s
n
0.4500 0.1500 m
0.4500 0.1600 l
s
n
0.4500 0.8500 m
0.4500 0.8400 l
s
n
0.6500 0.1500 m
0.6500 0.1600 l
s
n
0.6500 0.8500 m
0.6500 0.8400 l
s
n
0.8500 0.1500 m
0.8500 0.1600 l
s
n
0.8500 0.8500 m
0.8500 0.8400 l
s
n
1.0500 0.1500 m
1.0500 0.1600 l
s
n
1.0500 0.8500 m
1.0500 0.8400 l
s
n
0.1500 0.1500 m
0.1500 0.1700 l
s
n
0.1500 0.8500 m
0.1500 0.8300 l
s
n
0.3500 0.1500 m
0.3500 0.1700 l
s
n
0.3500 0.8500 m
0.3500 0.8300 l
s
n
0.5500 0.1500 m
0.5500 0.1700 l
s
n
0.5500 0.8500 m
0.5500 0.8300 l
s
n
0.7500 0.1500 m
0.7500 0.1700 l
s
n
0.7500 0.8500 m
0.7500 0.8300 l
s
n
0.9500 0.1500 m
0.9500 0.1700 l
s
n
0.9500 0.8500 m
0.9500 0.8300 l
s
n
1.1500 0.1500 m
1.1500 0.1700 l
s
n
1.1500 0.8500 m
1.1500 0.8300 l
s
/Times-Roman findfont
dup length dict begin
 {1 index /FID ne {def} {pop pop} ifelse} forall
 /Encoding DefEncoding def
 currentdict
end
/Font21 exch definefont pop
/Font21 FFSF
0.1433 0.1212 m
GS
[0.0280 0.0000 0.0000 0.0280 0 0] CC
(0) show
GR
/Font21 FFSF
0.3294 0.1212 m
GS
[0.0280 0.0000 0.0000 0.0280 0 0] CC
(100) show
GR
/Font21 FFSF
0.5294 0.1212 m
GS
[0.0280 0.0000 0.0000 0.0280 0 0] CC
(200) show
GR
/Font21 FFSF
0.7294 0.1212 m
GS
[0.0280 0.0000 0.0000 0.0280 0 0] CC
(300) show
GR
/Font21 FFSF
0.9294 0.1212 m
GS
[0.0280 0.0000 0.0000 0.0280 0 0] CC
(400) show
GR
/Font21 FFSF
1.1294 0.1208 m
GS
[0.0280 0.0000 0.0000 0.0280 0 0] CC
(500) show
GR
/Font21 FFSF
0.5596 0.0912 m
GS
[0.0280 0.0000 0.0000 0.0280 0 0] CC
(Number of trees) show
GR
n
0.1500 0.1500 m
0.1500 0.8500 l
s
n
1.1500 0.1500 m
1.1500 0.8500 l
s
n
0.1500 0.2200 m
0.1600 0.2200 l
s
n
1.1500 0.2200 m
1.1400 0.2200 l
s
n
0.1500 0.3600 m
0.1600 0.3600 l
s
n
1.1500 0.3600 m
1.1400 0.3600 l
s
n
0.1500 0.5000 m
0.1600 0.5000 l
s
n
1.1500 0.5000 m
1.1400 0.5000 l
s
n
0.1500 0.6400 m
0.1600 0.6400 l
s
n
1.1500 0.6400 m
1.1400 0.6400 l
s
n
0.1500 0.7800 m
0.1600 0.7800 l
s
n
1.1500 0.7800 m
1.1400 0.7800 l
s
n
0.1500 0.1500 m
0.1700 0.1500 l
s
n
1.1500 0.1500 m
1.1300 0.1500 l
s
n
0.1500 0.2900 m
0.1700 0.2900 l
s
n
1.1500 0.2900 m
1.1300 0.2900 l
s
n
0.1500 0.4300 m
0.1700 0.4300 l
s
n
1.1500 0.4300 m
1.1300 0.4300 l
s
n
0.1500 0.5700 m
0.1700 0.5700 l
s
n
1.1500 0.5700 m
1.1300 0.5700 l
s
n
0.1500 0.7100 m
0.1700 0.7100 l
s
n
1.1500 0.7100 m
1.1300 0.7100 l
s
n
0.1500 0.8500 m
0.1700 0.8500 l
s
n
1.1500 0.8500 m
1.1300 0.8500 l
s
/Font21 FFSF
0.0918 0.1408 m
GS
[0.0280 0.0000 0.0000 0.0280 0 0] CC
(0.84) show
GR
/Font21 FFSF
0.0929 0.2806 m
GS
[0.0280 0.0000 0.0000 0.0280 0 0] CC
(0.85) show
GR
/Font21 FFSF
0.0922 0.4206 m
GS
[0.0280 0.0000 0.0000 0.0280 0 0] CC
(0.86) show
GR
/Font21 FFSF
0.0925 0.5608 m
GS
[0.0280 0.0000 0.0000 0.0280 0 0] CC
(0.87) show
GR
/Font21 FFSF
0.0925 0.7008 m
GS
[0.0280 0.0000 0.0000 0.0280 0 0] CC
(0.88) show
GR
/Font21 FFSF
0.0922 0.8410 m
GS
[0.0280 0.0000 0.0000 0.0280 0 0] CC
(0.89) show
GR
/Font21 FFSF
0.0814 0.3761 m
GS
[0.0000 0.0280 -0.0280 0.0000 0 0] CC
(Validation ROC AUC) show
GR
n
0.1500 0.1500 m
0.1500 0.8500 l
1.1500 0.8500 l
1.1500 0.1500 l
0.1500 0.1500 l
c
s
n
0.6000 0.4000 m
0.6000 0.2184 l
1.0523 0.2184 l
1.0523 0.4000 l
c
[/DeviceRGB] SCS
Color0 SC
fill
[/DeviceRGB] SCS
Color1 SC
n
0.6000 0.4000 m
0.6000 0.2184 l
1.0523 0.2184 l
1.0523 0.4000 l
0.6000 0.4000 l
c
s
/Font21 FFSF
0.6815 0.3708 m
GS
[0.0280 0.0000 0.0000 0.0280 0 0] CC
(Random Forest \(gini\)) show
GR
[] 0 SD
0.0030 SLW
n
0.6215 0.3773 m
0.6615 0.3773 l
s
n
0.6130 0.3688 m
0.6130 0.3858 l
0.6300 0.3858 l
0.6300 0.3688 l
0.6130 0.3688 l
c
s
n
0.6530 0.3688 m
0.6530 0.3858 l
0.6700 0.3858 l
0.6700 0.3688 l
0.6530 0.3688 l
c
s
/Font21 FFSF
0.6815 0.3353 m
GS
[0.0280 0.0000 0.0000 0.0280 0 0] CC
(Random Forest \(entropy\)) show
GR
[/DeviceRGB] SCS
Color2 SC
[0.0030 0.0090 ] 0 SD
0.0030 SLW
n
0.6215 0.3418 m
0.6615 0.3418 l
s
[] 0 SD
0.0030 SLW
n
0.6130 0.3333 m
0.6130 0.3503 l
0.6300 0.3503 l
0.6300 0.3333 l
0.6130 0.3333 l
c
s
n
0.6530 0.3333 m
0.6530 0.3503 l
0.6700 0.3503 l
0.6700 0.3333 l
0.6530 0.3333 l
c
s
/Font21 FFSF
[/DeviceRGB] SCS
Color1 SC
0.6815 0.2998 m
GS
[0.0280 0.0000 0.0000 0.0280 0 0] CC
(AdaBoost) show
GR
[/DeviceRGB] SCS
Color3 SC
[0.0030 0.0090 0.0150 0.0090 ] 0 SD
0.0030 SLW
n
0.6215 0.3092 m
0.6615 0.3092 l
s
[] 0 SD
0.0030 SLW
n
0.6215 0.3192 m
0.6115 0.3092 l
0.6215 0.2992 l
0.6315 0.3092 l
0.6215 0.3192 l
c
s
n
0.6615 0.3192 m
0.6515 0.3092 l
0.6615 0.2992 l
0.6715 0.3092 l
0.6615 0.3192 l
c
s
/Font21 FFSF
[/DeviceRGB] SCS
Color1 SC
0.6815 0.2702 m
GS
[0.0280 0.0000 0.0000 0.0280 0 0] CC
(Gradient Boosting \(exponential\)) show
GR
[/DeviceRGB] SCS
Color4 SC
[0.0030 0.0090 0.0210 0.0090 ] 0 SD
0.0030 SLW
n
0.6215 0.2767 m
0.6615 0.2767 l
s
[] 0 SD
0.0030 SLW
n 0.6215 0.2767 0.0100 0.0100 0 360 EARC s
n 0.6615 0.2767 0.0100 0.0100 0 360 EARC s
/Font21 FFSF
[/DeviceRGB] SCS
Color1 SC
0.6815 0.2347 m
GS
[0.0280 0.0000 0.0000 0.0280 0 0] CC
(Gradient boosting \(deviance\)) show
GR
[/DeviceRGB] SCS
Color10 SC
[0.0150 0.0090 0.0030 0.0090 0.0150 0.0090 ] 0 SD
0.0030 SLW
n
0.6215 0.2412 m
0.6615 0.2412 l
s
[] 0 SD
0.0030 SLW
n 0.6215 0.2412 0.0100 0.0100 0 360 EARC s
n 0.6615 0.2412 0.0100 0.0100 0 360 EARC s
showpage
%%PageTrailer
%%Trailer
%%DocumentNeededResources: font Times-Roman
%%EOF
