%!PS-Adobe-3.0 EPSF-3.0
%%BoundingBox: (atend)
%%LanguageLevel: 2
%%Creator: Grace-5.1.22
%%CreationDate: Mon Dec  7 12:06:13 2015
%%DocumentData: Clean8Bit
%%Orientation: Portrait
%%Title: aucs.agr
%%For: dpeng
%%DocumentNeededResources: (atend)
%%EndComments
%%BeginProlog
/m {moveto} def
/l {lineto} def
/s {stroke} def
/n {newpath} def
/c {closepath} def
/RL {rlineto} def
/SLW {setlinewidth} def
/GS {gsave} def
/GR {grestore} def
/SC {setcolor} def
/SGRY {setgray} def
/SRGB {setrgbcolor} def
/SD {setdash} def
/SLC {setlinecap} def
/SLJ {setlinejoin} def
/SCS {setcolorspace} def
/FFSF {findfont setfont} def
/CC {concat} def
/PXL {n m 0 0 RL s} def
/Color0 {1.0000 1.0000 1.0000} def
/Color1 {0.0000 0.0000 0.0000} def
/Color2 {1.0000 0.0000 0.0000} def
/Color3 {0.0000 1.0000 0.0000} def
/Color4 {0.0000 0.0000 1.0000} def
/Color5 {1.0000 1.0000 0.0000} def
/Color6 {0.7373 0.5608 0.5608} def
/Color7 {0.8627 0.8627 0.8627} def
/Color8 {0.5804 0.0000 0.8275} def
/Color9 {0.0000 1.0000 1.0000} def
/Color10 {1.0000 0.0000 1.0000} def
/Color11 {1.0000 0.6471 0.0000} def
/Color12 {0.4471 0.1294 0.7373} def
/Color13 {0.4039 0.0275 0.2824} def
/Color14 {0.2510 0.8784 0.8157} def
/Color15 {0.0000 0.5451 0.0000} def
/Color16 {0.7529 0.7529 0.7529} def
/Color17 {0.5059 0.5059 0.5059} def
/Color18 {0.2588 0.2588 0.2588} def
/PTRN {
 /pat_bits exch def 
 <<
  /PaintType 2
  /PatternType 1 /TilingType 1
  /BBox[0 0 16 16]
  /XStep 16 /YStep 16
  /PaintProc {
   pop
   16 16 true [-1 0 0 -1 16 16] pat_bits imagemask
  }
 >>
 [0.0016 0 0 0.0016 0 0]
 makepattern
} def
/Pattern0 {<0000000000000000000000000000000000000000000000000000000000000000> PTRN} bind def
/Pattern1 {<ffffffffffffffffffffffffffffffffffffffffffffffffffffffffffffffff> PTRN} bind def
/Pattern2 {<eeeeffffbbbbffffeeeeffffbbbbffffeeeeffffbbbbffffeeeeffffbbbbffff> PTRN} bind def
/Pattern3 {<eeeebbbbeeeebbbbeeeebbbbeeeebbbbeeeebbbbeeeebbbbeeeebbbbeeeebbbb> PTRN} bind def
/Pattern4 {<5555aaaa5555aaaa5555aaaa5555aaaa5555aaaa5555aaaa5555aaaa5555aaaa> PTRN} bind def
/Pattern5 {<1111444411114444111144441111444411114444111144441111444411114444> PTRN} bind def
/Pattern6 {<1111000044440000111100004444000011110000444400001111000044440000> PTRN} bind def
/Pattern7 {<1010000000000000010100000000000010100000000000000101000000000000> PTRN} bind def
/Pattern8 {<0000000000000000000000000000000000000000000000000000000000000000> PTRN} bind def
/Pattern9 {<1e1e0f0f8787c3c3e1e1f0f078783c3c1e1e0f0f8787c3c3e1e1f0f078783c3c> PTRN} bind def
/Pattern10 {<7878f0f0e1e1c3c387870f0f1e1e3c3c7878f0f0e1e1c3c387870f0f1e1e3c3c> PTRN} bind def
/Pattern11 {<3333333333333333333333333333333333333333333333333333333333333333> PTRN} bind def
/Pattern12 {<ffffffff00000000ffffffff00000000ffffffff00000000ffffffff00000000> PTRN} bind def
/Pattern13 {<8181424224241818181824244242818181814242242418181818242442428181> PTRN} bind def
/Pattern14 {<8080404020201010080804040202010180804040202010100808040402020101> PTRN} bind def
/Pattern15 {<0101020204040808101020204040808001010202040408081010202040408080> PTRN} bind def
/Pattern16 {<2222222222222222222222222222222222222222222222222222222222222222> PTRN} bind def
/Pattern17 {<0000ffff000000000000ffff000000000000ffff000000000000ffff00000000> PTRN} bind def
/Pattern18 {<2222ffff222222222222ffff222222222222ffff222222222222ffff22222222> PTRN} bind def
/Pattern19 {<ffffffff33333333ffffffff33333333ffffffff33333333ffffffff33333333> PTRN} bind def
/Pattern20 {<0f0f0f0f0f0f0f0ff0f0f0f0f0f0f0f00f0f0f0f0f0f0f0ff0f0f0f0f0f0f0f0> PTRN} bind def
/Pattern21 {<ff00ff00ff00ff00ff00ff00ff00ff0000ff00ff00ff00ff00ff00ff00ff00ff> PTRN} bind def
/Pattern22 {<8001800180018001800180018001ffffffff8001800180018001800180018001> PTRN} bind def
/Pattern23 {<c003c003c003c003c003c003ffffffffffffffffc003c003c003c003c003c003> PTRN} bind def
/Pattern24 {<040404040404ffff404040404040ffff040404040404ffff404040404040ffff> PTRN} bind def
/Pattern25 {<180018001800180018001800ffffffff001800180018001800180018ffffffff> PTRN} bind def
/Pattern26 {<1111b8b87c7c3a3a1111a3a3c7c78b8b1111b8b87c7c3a3a1111a3a3c7c78b8b> PTRN} bind def
/Pattern27 {<101010102828c7c70101010182827c7c101010102828c7c70101010182827c7c> PTRN} bind def
/Pattern28 {<1c1c121211112121c1c12121111112121c1c121211112121c1c1212111111212> PTRN} bind def
/Pattern29 {<3e3e414180808080e3e31414080808083e3e414180808080e3e3141408080808> PTRN} bind def
/Pattern30 {<4848888884848383848488884848383848488888848483838484888848483838> PTRN} bind def
/Pattern31 {<03030404080808080c0c12122121c0c003030404080808080c0c12122121c0c0> PTRN} bind def
/ellipsedict 8 dict def
ellipsedict /mtrx matrix put
/EARC {
 ellipsedict begin
  /endangle exch def
  /startangle exch def
  /yrad exch def
  /xrad exch def
  /y exch def
  /x exch def
  /savematrix mtrx currentmatrix def
  x y translate
  xrad yrad scale
  0 0 1 startangle endangle arc
  savematrix setmatrix
 end
} def
/TL {
  /kcomp exch def
  /linewidth exch def
  /offset exch def
  GS
  0 offset rmoveto
  linewidth SLW
  dup stringwidth exch kcomp add exch RL s
  GR
} def
/KINIT
{
 /kvector exch def
 /kid 0 def
} def
/KPROC
{
 pop pop
 kvector kid get
 0 rmoveto
 /kid 1 kid add def
} def
/DefEncoding [
 /.notdef
 /.notdef
 /.notdef
 /.notdef
 /.notdef
 /.notdef
 /.notdef
 /.notdef
 /.notdef
 /.notdef
 /.notdef
 /.notdef
 /.notdef
 /.notdef
 /.notdef
 /.notdef
 /.notdef
 /.notdef
 /.notdef
 /.notdef
 /.notdef
 /.notdef
 /.notdef
 /.notdef
 /.notdef
 /.notdef
 /.notdef
 /.notdef
 /.notdef
 /.notdef
 /.notdef
 /.notdef
 /space
 /exclam
 /quotedbl
 /numbersign
 /dollar
 /percent
 /ampersand
 /quoteright
 /parenleft
 /parenright
 /asterisk
 /plus
 /comma
 /hyphen
 /period
 /slash
 /zero
 /one
 /two
 /three
 /four
 /five
 /six
 /seven
 /eight
 /nine
 /colon
 /semicolon
 /less
 /equal
 /greater
 /question
 /at
 /A
 /B
 /C
 /D
 /E
 /F
 /G
 /H
 /I
 /J
 /K
 /L
 /M
 /N
 /O
 /P
 /Q
 /R
 /S
 /T
 /U
 /V
 /W
 /X
 /Y
 /Z
 /bracketleft
 /backslash
 /bracketright
 /asciicircum
 /underscore
 /grave
 /a
 /b
 /c
 /d
 /e
 /f
 /g
 /h
 /i
 /j
 /k
 /l
 /m
 /n
 /o
 /p
 /q
 /r
 /s
 /t
 /u
 /v
 /w
 /x
 /y
 /z
 /braceleft
 /bar
 /braceright
 /asciitilde
 /.notdef
 /.notdef
 /.notdef
 /.notdef
 /.notdef
 /.notdef
 /.notdef
 /.notdef
 /.notdef
 /.notdef
 /.notdef
 /.notdef
 /.notdef
 /.notdef
 /.notdef
 /.notdef
 /.notdef
 /.notdef
 /.notdef
 /.notdef
 /.notdef
 /.notdef
 /.notdef
 /.notdef
 /.notdef
 /.notdef
 /.notdef
 /.notdef
 /.notdef
 /.notdef
 /.notdef
 /.notdef
 /.notdef
 /space
 /exclamdown
 /cent
 /sterling
 /currency
 /yen
 /brokenbar
 /section
 /dieresis
 /copyright
 /ordfeminine
 /guillemotleft
 /logicalnot
 /hyphen
 /registered
 /macron
 /degree
 /plusminus
 /twosuperior
 /threesuperior
 /acute
 /mu
 /paragraph
 /periodcentered
 /cedilla
 /onesuperior
 /ordmasculine
 /guillemotright
 /onequarter
 /onehalf
 /threequarters
 /questiondown
 /Agrave
 /Aacute
 /Acircumflex
 /Atilde
 /Adieresis
 /Aring
 /AE
 /Ccedilla
 /Egrave
 /Eacute
 /Ecircumflex
 /Edieresis
 /Igrave
 /Iacute
 /Icircumflex
 /Idieresis
 /Eth
 /Ntilde
 /Ograve
 /Oacute
 /Ocircumflex
 /Otilde
 /Odieresis
 /multiply
 /Oslash
 /Ugrave
 /Uacute
 /Ucircumflex
 /Udieresis
 /Yacute
 /Thorn
 /germandbls
 /agrave
 /aacute
 /acircumflex
 /atilde
 /adieresis
 /aring
 /ae
 /ccedilla
 /egrave
 /eacute
 /ecircumflex
 /edieresis
 /igrave
 /iacute
 /icircumflex
 /idieresis
 /eth
 /ntilde
 /ograve
 /oacute
 /ocircumflex
 /otilde
 /odieresis
 /divide
 /oslash
 /ugrave
 /uacute
 /ucircumflex
 /udieresis
 /yacute
 /thorn
 /ydieresis
] def
%%EndProlog
%%BeginSetup
%%EndSetup
612.00 612.00 scale
n
0.0000 0.0000 m
0.0000 1.0000 l
1.2941 1.0000 l
1.2941 0.0000 l
c
[/DeviceRGB] SCS
Color0 SC
fill
[/DeviceRGB] SCS
Color1 SC
[] 0 SD
0.0030 SLW
0 SLC
0 SLJ
n
0.1700 0.2320 m
0.1900 0.4243 l
0.2100 0.4955 l
0.2300 0.5390 l
0.2500 0.5623 l
0.2700 0.5746 l
0.2900 0.5840 l
0.3100 0.5863 l
0.3300 0.5980 l
0.3500 0.6018 l
0.3700 0.6069 l
0.3900 0.6099 l
0.4100 0.6132 l
0.4300 0.6177 l
0.4500 0.6194 l
0.4700 0.6238 l
0.4900 0.6308 l
0.5100 0.6372 l
0.5300 0.6401 l
0.5500 0.6428 l
0.5700 0.6430 l
0.5900 0.6442 l
0.6100 0.6438 l
0.6300 0.6439 l
0.6500 0.6444 l
0.6700 0.6453 l
0.6900 0.6459 l
0.7100 0.6486 l
0.7300 0.6501 l
0.7500 0.6504 l
0.7700 0.6512 l
0.7900 0.6519 l
0.8100 0.6518 l
0.8300 0.6506 l
0.8500 0.6499 l
0.8700 0.6514 l
0.8900 0.6526 l
0.9100 0.6530 l
0.9300 0.6537 l
0.9500 0.6553 l
0.9700 0.6560 l
0.9900 0.6570 l
1.0100 0.6577 l
1.0300 0.6575 l
1.0500 0.6570 l
1.0700 0.6574 l
1.0900 0.6582 l
1.1100 0.6576 l
1.1300 0.6584 l
1.1500 0.6589 l
s
n 0.1700 0.2320 0.0100 0.0100 0 360 EARC s
n 0.1900 0.4243 0.0100 0.0100 0 360 EARC s
n 0.2100 0.4955 0.0100 0.0100 0 360 EARC s
n 0.2300 0.5390 0.0100 0.0100 0 360 EARC s
n 0.2500 0.5623 0.0100 0.0100 0 360 EARC s
n 0.2700 0.5746 0.0100 0.0100 0 360 EARC s
n 0.2900 0.5840 0.0100 0.0100 0 360 EARC s
n 0.3100 0.5863 0.0100 0.0100 0 360 EARC s
n 0.3300 0.5980 0.0100 0.0100 0 360 EARC s
n 0.3500 0.6018 0.0100 0.0100 0 360 EARC s
n 0.3700 0.6069 0.0100 0.0100 0 360 EARC s
n 0.3900 0.6099 0.0100 0.0100 0 360 EARC s
n 0.4100 0.6132 0.0100 0.0100 0 360 EARC s
n 0.4300 0.6177 0.0100 0.0100 0 360 EARC s
n 0.4500 0.6194 0.0100 0.0100 0 360 EARC s
n 0.4700 0.6238 0.0100 0.0100 0 360 EARC s
n 0.4900 0.6308 0.0100 0.0100 0 360 EARC s
n 0.5100 0.6372 0.0100 0.0100 0 360 EARC s
n 0.5300 0.6401 0.0100 0.0100 0 360 EARC s
n 0.5500 0.6428 0.0100 0.0100 0 360 EARC s
n 0.5700 0.6430 0.0100 0.0100 0 360 EARC s
n 0.5900 0.6442 0.0100 0.0100 0 360 EARC s
n 0.6100 0.6438 0.0100 0.0100 0 360 EARC s
n 0.6300 0.6439 0.0100 0.0100 0 360 EARC s
n 0.6500 0.6444 0.0100 0.0100 0 360 EARC s
n 0.6700 0.6453 0.0100 0.0100 0 360 EARC s
n 0.6900 0.6459 0.0100 0.0100 0 360 EARC s
n 0.7100 0.6486 0.0100 0.0100 0 360 EARC s
n 0.7300 0.6501 0.0100 0.0100 0 360 EARC s
n 0.7500 0.6504 0.0100 0.0100 0 360 EARC s
n 0.7700 0.6512 0.0100 0.0100 0 360 EARC s
n 0.7900 0.6519 0.0100 0.0100 0 360 EARC s
n 0.8100 0.6518 0.0100 0.0100 0 360 EARC s
n 0.8300 0.6506 0.0100 0.0100 0 360 EARC s
n 0.8500 0.6499 0.0100 0.0100 0 360 EARC s
n 0.8700 0.6514 0.0100 0.0100 0 360 EARC s
n 0.8900 0.6526 0.0100 0.0100 0 360 EARC s
n 0.9100 0.6530 0.0100 0.0100 0 360 EARC s
n 0.9300 0.6537 0.0100 0.0100 0 360 EARC s
n 0.9500 0.6553 0.0100 0.0100 0 360 EARC s
n 0.9700 0.6560 0.0100 0.0100 0 360 EARC s
n 0.9900 0.6570 0.0100 0.0100 0 360 EARC s
n 1.0100 0.6577 0.0100 0.0100 0 360 EARC s
n 1.0300 0.6575 0.0100 0.0100 0 360 EARC s
n 1.0500 0.6570 0.0100 0.0100 0 360 EARC s
n 1.0700 0.6574 0.0100 0.0100 0 360 EARC s
n 1.0900 0.6582 0.0100 0.0100 0 360 EARC s
n 1.1100 0.6576 0.0100 0.0100 0 360 EARC s
n 1.1300 0.6584 0.0100 0.0100 0 360 EARC s
n 1.1500 0.6589 0.0100 0.0100 0 360 EARC s
[/DeviceRGB] SCS
Color2 SC
n
0.1700 0.2001 m
0.1900 0.4088 l
0.2100 0.4702 l
0.2300 0.5164 l
0.2500 0.5441 l
0.2700 0.5625 l
0.2900 0.5804 l
0.3100 0.5875 l
0.3300 0.5958 l
0.3500 0.6017 l
0.3700 0.6085 l
0.3900 0.6146 l
0.4100 0.6179 l
0.4300 0.6212 l
0.4500 0.6255 l
0.4700 0.6315 l
0.4900 0.6313 l
0.5100 0.6321 l
0.5300 0.6328 l
0.5500 0.6326 l
0.5700 0.6336 l
0.5900 0.6321 l
0.6100 0.6315 l
0.6300 0.6342 l
0.6500 0.6336 l
0.6700 0.6334 l
0.6900 0.6350 l
0.7100 0.6358 l
0.7300 0.6356 l
0.7500 0.6352 l
0.7700 0.6346 l
0.7900 0.6349 l
0.8100 0.6364 l
0.8300 0.6371 l
0.8500 0.6378 l
0.8700 0.6385 l
0.8900 0.6394 l
0.9100 0.6393 l
0.9300 0.6399 l
0.9500 0.6396 l
0.9700 0.6387 l
0.9900 0.6383 l
1.0100 0.6389 l
1.0300 0.6387 l
1.0500 0.6393 l
1.0700 0.6399 l
1.0900 0.6397 l
1.1100 0.6393 l
1.1300 0.6393 l
1.1500 0.6386 l
s
n 0.1700 0.2001 0.0100 0.0100 0 360 EARC s
n 0.1900 0.4088 0.0100 0.0100 0 360 EARC s
n 0.2100 0.4702 0.0100 0.0100 0 360 EARC s
n 0.2300 0.5164 0.0100 0.0100 0 360 EARC s
n 0.2500 0.5441 0.0100 0.0100 0 360 EARC s
n 0.2700 0.5625 0.0100 0.0100 0 360 EARC s
n 0.2900 0.5804 0.0100 0.0100 0 360 EARC s
n 0.3100 0.5875 0.0100 0.0100 0 360 EARC s
n 0.3300 0.5958 0.0100 0.0100 0 360 EARC s
n 0.3500 0.6017 0.0100 0.0100 0 360 EARC s
n 0.3700 0.6085 0.0100 0.0100 0 360 EARC s
n 0.3900 0.6146 0.0100 0.0100 0 360 EARC s
n 0.4100 0.6179 0.0100 0.0100 0 360 EARC s
n 0.4300 0.6212 0.0100 0.0100 0 360 EARC s
n 0.4500 0.6255 0.0100 0.0100 0 360 EARC s
n 0.4700 0.6315 0.0100 0.0100 0 360 EARC s
n 0.4900 0.6313 0.0100 0.0100 0 360 EARC s
n 0.5100 0.6321 0.0100 0.0100 0 360 EARC s
n 0.5300 0.6328 0.0100 0.0100 0 360 EARC s
n 0.5500 0.6326 0.0100 0.0100 0 360 EARC s
n 0.5700 0.6336 0.0100 0.0100 0 360 EARC s
n 0.5900 0.6321 0.0100 0.0100 0 360 EARC s
n 0.6100 0.6315 0.0100 0.0100 0 360 EARC s
n 0.6300 0.6342 0.0100 0.0100 0 360 EARC s
n 0.6500 0.6336 0.0100 0.0100 0 360 EARC s
n 0.6700 0.6334 0.0100 0.0100 0 360 EARC s
n 0.6900 0.6350 0.0100 0.0100 0 360 EARC s
n 0.7100 0.6358 0.0100 0.0100 0 360 EARC s
n 0.7300 0.6356 0.0100 0.0100 0 360 EARC s
n 0.7500 0.6352 0.0100 0.0100 0 360 EARC s
n 0.7700 0.6346 0.0100 0.0100 0 360 EARC s
n 0.7900 0.6349 0.0100 0.0100 0 360 EARC s
n 0.8100 0.6364 0.0100 0.0100 0 360 EARC s
n 0.8300 0.6371 0.0100 0.0100 0 360 EARC s
n 0.8500 0.6378 0.0100 0.0100 0 360 EARC s
n 0.8700 0.6385 0.0100 0.0100 0 360 EARC s
n 0.8900 0.6394 0.0100 0.0100 0 360 EARC s
n 0.9100 0.6393 0.0100 0.0100 0 360 EARC s
n 0.9300 0.6399 0.0100 0.0100 0 360 EARC s
n 0.9500 0.6396 0.0100 0.0100 0 360 EARC s
n 0.9700 0.6387 0.0100 0.0100 0 360 EARC s
n 0.9900 0.6383 0.0100 0.0100 0 360 EARC s
n 1.0100 0.6389 0.0100 0.0100 0 360 EARC s
n 1.0300 0.6387 0.0100 0.0100 0 360 EARC s
n 1.0500 0.6393 0.0100 0.0100 0 360 EARC s
n 1.0700 0.6399 0.0100 0.0100 0 360 EARC s
n 1.0900 0.6397 0.0100 0.0100 0 360 EARC s
n 1.1100 0.6393 0.0100 0.0100 0 360 EARC s
n 1.1300 0.6393 0.0100 0.0100 0 360 EARC s
n 1.1500 0.6386 0.0100 0.0100 0 360 EARC s
[/DeviceRGB] SCS
Color3 SC
[0.0030 0.0090 0.0150 0.0090 ] 0 SD
0.0030 SLW
n
0.1700 0.5475 m
0.1900 0.6593 l
0.2100 0.6872 l
0.2300 0.7060 l
0.2500 0.7144 l
0.2700 0.7208 l
0.2900 0.7261 l
0.3100 0.7300 l
0.3300 0.7321 l
0.3500 0.7344 l
0.3700 0.7344 l
0.3900 0.7361 l
0.4100 0.7374 l
0.4300 0.7358 l
0.4500 0.7353 l
0.4700 0.7353 l
0.4900 0.7358 l
0.5100 0.7343 l
0.5300 0.7359 l
0.5500 0.7354 l
0.5700 0.7353 l
0.5900 0.7366 l
0.6100 0.7361 l
0.6300 0.7361 l
0.6500 0.7360 l
0.6700 0.7356 l
0.6900 0.7352 l
0.7100 0.7349 l
0.7300 0.7340 l
0.7500 0.7348 l
0.7700 0.7353 l
0.7900 0.7353 l
0.8100 0.7349 l
0.8300 0.7344 l
0.8500 0.7337 l
0.8700 0.7316 l
0.8900 0.7314 l
0.9100 0.7322 l
0.9300 0.7325 l
0.9500 0.7323 l
0.9700 0.7307 l
0.9900 0.7306 l
1.0100 0.7273 l
1.0300 0.7265 l
1.0500 0.7268 l
1.0700 0.7266 l
1.0900 0.7252 l
1.1100 0.7252 l
1.1300 0.7263 l
1.1500 0.7257 l
s
[] 0 SD
0.0030 SLW
n
0.1700 0.5575 m
0.1600 0.5475 l
0.1700 0.5375 l
0.1800 0.5475 l
0.1700 0.5575 l
c
s
n
0.1900 0.6693 m
0.1800 0.6593 l
0.1900 0.6493 l
0.2000 0.6593 l
0.1900 0.6693 l
c
s
n
0.2100 0.6972 m
0.2000 0.6872 l
0.2100 0.6772 l
0.2200 0.6872 l
0.2100 0.6972 l
c
s
n
0.2300 0.7160 m
0.2200 0.7060 l
0.2300 0.6960 l
0.2400 0.7060 l
0.2300 0.7160 l
c
s
n
0.2500 0.7244 m
0.2400 0.7144 l
0.2500 0.7044 l
0.2600 0.7144 l
0.2500 0.7244 l
c
s
n
0.2700 0.7308 m
0.2600 0.7208 l
0.2700 0.7108 l
0.2800 0.7208 l
0.2700 0.7308 l
c
s
n
0.2900 0.7361 m
0.2800 0.7261 l
0.2900 0.7161 l
0.3000 0.7261 l
0.2900 0.7361 l
c
s
n
0.3100 0.7400 m
0.3000 0.7300 l
0.3100 0.7200 l
0.3200 0.7300 l
0.3100 0.7400 l
c
s
n
0.3300 0.7421 m
0.3200 0.7321 l
0.3300 0.7221 l
0.3400 0.7321 l
0.3300 0.7421 l
c
s
n
0.3500 0.7444 m
0.3400 0.7344 l
0.3500 0.7244 l
0.3600 0.7344 l
0.3500 0.7444 l
c
s
n
0.3700 0.7444 m
0.3600 0.7344 l
0.3700 0.7244 l
0.3800 0.7344 l
0.3700 0.7444 l
c
s
n
0.3900 0.7461 m
0.3800 0.7361 l
0.3900 0.7261 l
0.4000 0.7361 l
0.3900 0.7461 l
c
s
n
0.4100 0.7474 m
0.4000 0.7374 l
0.4100 0.7274 l
0.4200 0.7374 l
0.4100 0.7474 l
c
s
n
0.4300 0.7458 m
0.4200 0.7358 l
0.4300 0.7258 l
0.4400 0.7358 l
0.4300 0.7458 l
c
s
n
0.4500 0.7453 m
0.4400 0.7353 l
0.4500 0.7253 l
0.4600 0.7353 l
0.4500 0.7453 l
c
s
n
0.4700 0.7453 m
0.4600 0.7353 l
0.4700 0.7253 l
0.4800 0.7353 l
0.4700 0.7453 l
c
s
n
0.4900 0.7458 m
0.4800 0.7358 l
0.4900 0.7258 l
0.5000 0.7358 l
0.4900 0.7458 l
c
s
n
0.5100 0.7443 m
0.5000 0.7343 l
0.5100 0.7243 l
0.5200 0.7343 l
0.5100 0.7443 l
c
s
n
0.5300 0.7459 m
0.5200 0.7359 l
0.5300 0.7259 l
0.5400 0.7359 l
0.5300 0.7459 l
c
s
n
0.5500 0.7454 m
0.5400 0.7354 l
0.5500 0.7254 l
0.5600 0.7354 l
0.5500 0.7454 l
c
s
n
0.5700 0.7453 m
0.5600 0.7353 l
0.5700 0.7253 l
0.5800 0.7353 l
0.5700 0.7453 l
c
s
n
0.5900 0.7466 m
0.5800 0.7366 l
0.5900 0.7266 l
0.6000 0.7366 l
0.5900 0.7466 l
c
s
n
0.6100 0.7461 m
0.6000 0.7361 l
0.6100 0.7261 l
0.6200 0.7361 l
0.6100 0.7461 l
c
s
n
0.6300 0.7461 m
0.6200 0.7361 l
0.6300 0.7261 l
0.6400 0.7361 l
0.6300 0.7461 l
c
s
n
0.6500 0.7460 m
0.6400 0.7360 l
0.6500 0.7260 l
0.6600 0.7360 l
0.6500 0.7460 l
c
s
n
0.6700 0.7456 m
0.6600 0.7356 l
0.6700 0.7256 l
0.6800 0.7356 l
0.6700 0.7456 l
c
s
n
0.6900 0.7452 m
0.6800 0.7352 l
0.6900 0.7252 l
0.7000 0.7352 l
0.6900 0.7452 l
c
s
n
0.7100 0.7449 m
0.7000 0.7349 l
0.7100 0.7249 l
0.7200 0.7349 l
0.7100 0.7449 l
c
s
n
0.7300 0.7440 m
0.7200 0.7340 l
0.7300 0.7240 l
0.7400 0.7340 l
0.7300 0.7440 l
c
s
n
0.7500 0.7448 m
0.7400 0.7348 l
0.7500 0.7248 l
0.7600 0.7348 l
0.7500 0.7448 l
c
s
n
0.7700 0.7453 m
0.7600 0.7353 l
0.7700 0.7253 l
0.7800 0.7353 l
0.7700 0.7453 l
c
s
n
0.7900 0.7453 m
0.7800 0.7353 l
0.7900 0.7253 l
0.8000 0.7353 l
0.7900 0.7453 l
c
s
n
0.8100 0.7449 m
0.8000 0.7349 l
0.8100 0.7249 l
0.8200 0.7349 l
0.8100 0.7449 l
c
s
n
0.8300 0.7444 m
0.8200 0.7344 l
0.8300 0.7244 l
0.8400 0.7344 l
0.8300 0.7444 l
c
s
n
0.8500 0.7437 m
0.8400 0.7337 l
0.8500 0.7237 l
0.8600 0.7337 l
0.8500 0.7437 l
c
s
n
0.8700 0.7416 m
0.8600 0.7316 l
0.8700 0.7216 l
0.8800 0.7316 l
0.8700 0.7416 l
c
s
n
0.8900 0.7414 m
0.8800 0.7314 l
0.8900 0.7214 l
0.9000 0.7314 l
0.8900 0.7414 l
c
s
n
0.9100 0.7422 m
0.9000 0.7322 l
0.9100 0.7222 l
0.9200 0.7322 l
0.9100 0.7422 l
c
s
n
0.9300 0.7425 m
0.9200 0.7325 l
0.9300 0.7225 l
0.9400 0.7325 l
0.9300 0.7425 l
c
s
n
0.9500 0.7423 m
0.9400 0.7323 l
0.9500 0.7223 l
0.9600 0.7323 l
0.9500 0.7423 l
c
s
n
0.9700 0.7407 m
0.9600 0.7307 l
0.9700 0.7207 l
0.9800 0.7307 l
0.9700 0.7407 l
c
s
n
0.9900 0.7406 m
0.9800 0.7306 l
0.9900 0.7206 l
1.0000 0.7306 l
0.9900 0.7406 l
c
s
n
1.0100 0.7373 m
1.0000 0.7273 l
1.0100 0.7173 l
1.0200 0.7273 l
1.0100 0.7373 l
c
s
n
1.0300 0.7365 m
1.0200 0.7265 l
1.0300 0.7165 l
1.0400 0.7265 l
1.0300 0.7365 l
c
s
n
1.0500 0.7368 m
1.0400 0.7268 l
1.0500 0.7168 l
1.0600 0.7268 l
1.0500 0.7368 l
c
s
n
1.0700 0.7366 m
1.0600 0.7266 l
1.0700 0.7166 l
1.0800 0.7266 l
1.0700 0.7366 l
c
s
n
1.0900 0.7352 m
1.0800 0.7252 l
1.0900 0.7152 l
1.1000 0.7252 l
1.0900 0.7352 l
c
s
n
1.1100 0.7352 m
1.1000 0.7252 l
1.1100 0.7152 l
1.1200 0.7252 l
1.1100 0.7352 l
c
s
n
1.1300 0.7363 m
1.1200 0.7263 l
1.1300 0.7163 l
1.1400 0.7263 l
1.1300 0.7363 l
c
s
n
1.1500 0.7357 m
1.1400 0.7257 l
1.1500 0.7157 l
1.1600 0.7257 l
1.1500 0.7357 l
c
s
[/DeviceRGB] SCS
Color4 SC
[0.0030 0.0090 0.0150 0.0090 ] 0 SD
0.0030 SLW
n
0.1700 0.5328 m
0.1900 0.6540 l
0.2100 0.6794 l
0.2300 0.6932 l
0.2500 0.7036 l
0.2700 0.7129 l
0.2900 0.7170 l
0.3100 0.7206 l
0.3300 0.7252 l
0.3500 0.7285 l
0.3700 0.7289 l
0.3900 0.7294 l
0.4100 0.7313 l
0.4300 0.7306 l
0.4500 0.7301 l
0.4700 0.7311 l
0.4900 0.7318 l
0.5100 0.7336 l
0.5300 0.7333 l
0.5500 0.7329 l
0.5700 0.7326 l
0.5900 0.7309 l
0.6100 0.7304 l
0.6300 0.7314 l
0.6500 0.7316 l
0.6700 0.7311 l
0.6900 0.7309 l
0.7100 0.7302 l
0.7300 0.7307 l
0.7500 0.7301 l
0.7700 0.7302 l
0.7900 0.7300 l
0.8100 0.7303 l
0.8300 0.7304 l
0.8500 0.7290 l
0.8700 0.7292 l
0.8900 0.7300 l
0.9100 0.7290 l
0.9300 0.7285 l
0.9500 0.7283 l
0.9700 0.7267 l
0.9900 0.7253 l
1.0100 0.7248 l
1.0300 0.7244 l
1.0500 0.7241 l
1.0700 0.7239 l
1.0900 0.7233 l
1.1100 0.7237 l
1.1300 0.7236 l
1.1500 0.7235 l
s
[] 0 SD
0.0030 SLW
n
0.1700 0.5428 m
0.1600 0.5328 l
0.1700 0.5228 l
0.1800 0.5328 l
0.1700 0.5428 l
c
s
n
0.1900 0.6640 m
0.1800 0.6540 l
0.1900 0.6440 l
0.2000 0.6540 l
0.1900 0.6640 l
c
s
n
0.2100 0.6894 m
0.2000 0.6794 l
0.2100 0.6694 l
0.2200 0.6794 l
0.2100 0.6894 l
c
s
n
0.2300 0.7032 m
0.2200 0.6932 l
0.2300 0.6832 l
0.2400 0.6932 l
0.2300 0.7032 l
c
s
n
0.2500 0.7136 m
0.2400 0.7036 l
0.2500 0.6936 l
0.2600 0.7036 l
0.2500 0.7136 l
c
s
n
0.2700 0.7229 m
0.2600 0.7129 l
0.2700 0.7029 l
0.2800 0.7129 l
0.2700 0.7229 l
c
s
n
0.2900 0.7270 m
0.2800 0.7170 l
0.2900 0.7070 l
0.3000 0.7170 l
0.2900 0.7270 l
c
s
n
0.3100 0.7306 m
0.3000 0.7206 l
0.3100 0.7106 l
0.3200 0.7206 l
0.3100 0.7306 l
c
s
n
0.3300 0.7352 m
0.3200 0.7252 l
0.3300 0.7152 l
0.3400 0.7252 l
0.3300 0.7352 l
c
s
n
0.3500 0.7385 m
0.3400 0.7285 l
0.3500 0.7185 l
0.3600 0.7285 l
0.3500 0.7385 l
c
s
n
0.3700 0.7389 m
0.3600 0.7289 l
0.3700 0.7189 l
0.3800 0.7289 l
0.3700 0.7389 l
c
s
n
0.3900 0.7394 m
0.3800 0.7294 l
0.3900 0.7194 l
0.4000 0.7294 l
0.3900 0.7394 l
c
s
n
0.4100 0.7413 m
0.4000 0.7313 l
0.4100 0.7213 l
0.4200 0.7313 l
0.4100 0.7413 l
c
s
n
0.4300 0.7406 m
0.4200 0.7306 l
0.4300 0.7206 l
0.4400 0.7306 l
0.4300 0.7406 l
c
s
n
0.4500 0.7401 m
0.4400 0.7301 l
0.4500 0.7201 l
0.4600 0.7301 l
0.4500 0.7401 l
c
s
n
0.4700 0.7411 m
0.4600 0.7311 l
0.4700 0.7211 l
0.4800 0.7311 l
0.4700 0.7411 l
c
s
n
0.4900 0.7418 m
0.4800 0.7318 l
0.4900 0.7218 l
0.5000 0.7318 l
0.4900 0.7418 l
c
s
n
0.5100 0.7436 m
0.5000 0.7336 l
0.5100 0.7236 l
0.5200 0.7336 l
0.5100 0.7436 l
c
s
n
0.5300 0.7433 m
0.5200 0.7333 l
0.5300 0.7233 l
0.5400 0.7333 l
0.5300 0.7433 l
c
s
n
0.5500 0.7429 m
0.5400 0.7329 l
0.5500 0.7229 l
0.5600 0.7329 l
0.5500 0.7429 l
c
s
n
0.5700 0.7426 m
0.5600 0.7326 l
0.5700 0.7226 l
0.5800 0.7326 l
0.5700 0.7426 l
c
s
n
0.5900 0.7409 m
0.5800 0.7309 l
0.5900 0.7209 l
0.6000 0.7309 l
0.5900 0.7409 l
c
s
n
0.6100 0.7404 m
0.6000 0.7304 l
0.6100 0.7204 l
0.6200 0.7304 l
0.6100 0.7404 l
c
s
n
0.6300 0.7414 m
0.6200 0.7314 l
0.6300 0.7214 l
0.6400 0.7314 l
0.6300 0.7414 l
c
s
n
0.6500 0.7416 m
0.6400 0.7316 l
0.6500 0.7216 l
0.6600 0.7316 l
0.6500 0.7416 l
c
s
n
0.6700 0.7411 m
0.6600 0.7311 l
0.6700 0.7211 l
0.6800 0.7311 l
0.6700 0.7411 l
c
s
n
0.6900 0.7409 m
0.6800 0.7309 l
0.6900 0.7209 l
0.7000 0.7309 l
0.6900 0.7409 l
c
s
n
0.7100 0.7402 m
0.7000 0.7302 l
0.7100 0.7202 l
0.7200 0.7302 l
0.7100 0.7402 l
c
s
n
0.7300 0.7407 m
0.7200 0.7307 l
0.7300 0.7207 l
0.7400 0.7307 l
0.7300 0.7407 l
c
s
n
0.7500 0.7401 m
0.7400 0.7301 l
0.7500 0.7201 l
0.7600 0.7301 l
0.7500 0.7401 l
c
s
n
0.7700 0.7402 m
0.7600 0.7302 l
0.7700 0.7202 l
0.7800 0.7302 l
0.7700 0.7402 l
c
s
n
0.7900 0.7400 m
0.7800 0.7300 l
0.7900 0.7200 l
0.8000 0.7300 l
0.7900 0.7400 l
c
s
n
0.8100 0.7403 m
0.8000 0.7303 l
0.8100 0.7203 l
0.8200 0.7303 l
0.8100 0.7403 l
c
s
n
0.8300 0.7404 m
0.8200 0.7304 l
0.8300 0.7204 l
0.8400 0.7304 l
0.8300 0.7404 l
c
s
n
0.8500 0.7390 m
0.8400 0.7290 l
0.8500 0.7190 l
0.8600 0.7290 l
0.8500 0.7390 l
c
s
n
0.8700 0.7392 m
0.8600 0.7292 l
0.8700 0.7192 l
0.8800 0.7292 l
0.8700 0.7392 l
c
s
n
0.8900 0.7400 m
0.8800 0.7300 l
0.8900 0.7200 l
0.9000 0.7300 l
0.8900 0.7400 l
c
s
n
0.9100 0.7390 m
0.9000 0.7290 l
0.9100 0.7190 l
0.9200 0.7290 l
0.9100 0.7390 l
c
s
n
0.9300 0.7385 m
0.9200 0.7285 l
0.9300 0.7185 l
0.9400 0.7285 l
0.9300 0.7385 l
c
s
n
0.9500 0.7383 m
0.9400 0.7283 l
0.9500 0.7183 l
0.9600 0.7283 l
0.9500 0.7383 l
c
s
n
0.9700 0.7367 m
0.9600 0.7267 l
0.9700 0.7167 l
0.9800 0.7267 l
0.9700 0.7367 l
c
s
n
0.9900 0.7353 m
0.9800 0.7253 l
0.9900 0.7153 l
1.0000 0.7253 l
0.9900 0.7353 l
c
s
n
1.0100 0.7348 m
1.0000 0.7248 l
1.0100 0.7148 l
1.0200 0.7248 l
1.0100 0.7348 l
c
s
n
1.0300 0.7344 m
1.0200 0.7244 l
1.0300 0.7144 l
1.0400 0.7244 l
1.0300 0.7344 l
c
s
n
1.0500 0.7341 m
1.0400 0.7241 l
1.0500 0.7141 l
1.0600 0.7241 l
1.0500 0.7341 l
c
s
n
1.0700 0.7339 m
1.0600 0.7239 l
1.0700 0.7139 l
1.0800 0.7239 l
1.0700 0.7339 l
c
s
n
1.0900 0.7333 m
1.0800 0.7233 l
1.0900 0.7133 l
1.1000 0.7233 l
1.0900 0.7333 l
c
s
n
1.1100 0.7337 m
1.1000 0.7237 l
1.1100 0.7137 l
1.1200 0.7237 l
1.1100 0.7337 l
c
s
n
1.1300 0.7336 m
1.1200 0.7236 l
1.1300 0.7136 l
1.1400 0.7236 l
1.1300 0.7336 l
c
s
n
1.1500 0.7335 m
1.1400 0.7235 l
1.1500 0.7135 l
1.1600 0.7235 l
1.1500 0.7335 l
c
s
[/DeviceRGB] SCS
Color1 SC
[] 0 SD
0.0015 SLW
n
0.1500 0.1500 m
1.1500 0.1500 l
s
n
0.1500 0.8500 m
1.1500 0.8500 l
s
n
0.2500 0.1500 m
0.2500 0.1600 l
s
n
0.2500 0.8500 m
0.2500 0.8400 l
s
n
0.4500 0.1500 m
0.4500 0.1600 l
s
n
0.4500 0.8500 m
0.4500 0.8400 l
s
n
0.6500 0.1500 m
0.6500 0.1600 l
s
n
0.6500 0.8500 m
0.6500 0.8400 l
s
n
0.8500 0.1500 m
0.8500 0.1600 l
s
n
0.8500 0.8500 m
0.8500 0.8400 l
s
n
1.0500 0.1500 m
1.0500 0.1600 l
s
n
1.0500 0.8500 m
1.0500 0.8400 l
s
n
0.1500 0.1500 m
0.1500 0.1700 l
s
n
0.1500 0.8500 m
0.1500 0.8300 l
s
n
0.3500 0.1500 m
0.3500 0.1700 l
s
n
0.3500 0.8500 m
0.3500 0.8300 l
s
n
0.5500 0.1500 m
0.5500 0.1700 l
s
n
0.5500 0.8500 m
0.5500 0.8300 l
s
n
0.7500 0.1500 m
0.7500 0.1700 l
s
n
0.7500 0.8500 m
0.7500 0.8300 l
s
n
0.9500 0.1500 m
0.9500 0.1700 l
s
n
0.9500 0.8500 m
0.9500 0.8300 l
s
n
1.1500 0.1500 m
1.1500 0.1700 l
s
n
1.1500 0.8500 m
1.1500 0.8300 l
s
/Times-Roman findfont
dup length dict begin
 {1 index /FID ne {def} {pop pop} ifelse} forall
 /Encoding DefEncoding def
 currentdict
end
/Font21 exch definefont pop
/Font21 FFSF
0.1433 0.1212 m
GS
[0.0280 0.0000 0.0000 0.0280 0 0] CC
(0) show
GR
/Font21 FFSF
0.3294 0.1212 m
GS
[0.0280 0.0000 0.0000 0.0280 0 0] CC
(100) show
GR
/Font21 FFSF
0.5294 0.1212 m
GS
[0.0280 0.0000 0.0000 0.0280 0 0] CC
(200) show
GR
/Font21 FFSF
0.7294 0.1212 m
GS
[0.0280 0.0000 0.0000 0.0280 0 0] CC
(300) show
GR
/Font21 FFSF
0.9294 0.1212 m
GS
[0.0280 0.0000 0.0000 0.0280 0 0] CC
(400) show
GR
/Font21 FFSF
1.1294 0.1208 m
GS
[0.0280 0.0000 0.0000 0.0280 0 0] CC
(500) show
GR
/Font21 FFSF
0.5596 0.0912 m
GS
[0.0280 0.0000 0.0000 0.0280 0 0] CC
(Number of trees) show
GR
n
0.1500 0.1500 m
0.1500 0.8500 l
s
n
1.1500 0.1500 m
1.1500 0.8500 l
s
n
0.1500 0.2200 m
0.1600 0.2200 l
s
n
1.1500 0.2200 m
1.1400 0.2200 l
s
n
0.1500 0.3600 m
0.1600 0.3600 l
s
n
1.1500 0.3600 m
1.1400 0.3600 l
s
n
0.1500 0.5000 m
0.1600 0.5000 l
s
n
1.1500 0.5000 m
1.1400 0.5000 l
s
n
0.1500 0.6400 m
0.1600 0.6400 l
s
n
1.1500 0.6400 m
1.1400 0.6400 l
s
n
0.1500 0.7800 m
0.1600 0.7800 l
s
n
1.1500 0.7800 m
1.1400 0.7800 l
s
n
0.1500 0.1500 m
0.1700 0.1500 l
s
n
1.1500 0.1500 m
1.1300 0.1500 l
s
n
0.1500 0.2900 m
0.1700 0.2900 l
s
n
1.1500 0.2900 m
1.1300 0.2900 l
s
n
0.1500 0.4300 m
0.1700 0.4300 l
s
n
1.1500 0.4300 m
1.1300 0.4300 l
s
n
0.1500 0.5700 m
0.1700 0.5700 l
s
n
1.1500 0.5700 m
1.1300 0.5700 l
s
n
0.1500 0.7100 m
0.1700 0.7100 l
s
n
1.1500 0.7100 m
1.1300 0.7100 l
s
n
0.1500 0.8500 m
0.1700 0.8500 l
s
n
1.1500 0.8500 m
1.1300 0.8500 l
s
/Font21 FFSF
0.0918 0.1408 m
GS
[0.0280 0.0000 0.0000 0.0280 0 0] CC
(0.84) show
GR
/Font21 FFSF
0.0929 0.2806 m
GS
[0.0280 0.0000 0.0000 0.0280 0 0] CC
(0.85) show
GR
/Font21 FFSF
0.0922 0.4206 m
GS
[0.0280 0.0000 0.0000 0.0280 0 0] CC
(0.86) show
GR
/Font21 FFSF
0.0925 0.5608 m
GS
[0.0280 0.0000 0.0000 0.0280 0 0] CC
(0.87) show
GR
/Font21 FFSF
0.0925 0.7008 m
GS
[0.0280 0.0000 0.0000 0.0280 0 0] CC
(0.88) show
GR
/Font21 FFSF
0.0922 0.8410 m
GS
[0.0280 0.0000 0.0000 0.0280 0 0] CC
(0.89) show
GR
/Font21 FFSF
0.0814 0.4386 m
GS
[0.0000 0.0280 -0.0280 0.0000 0 0] CC
(ROC AUC) show
GR
n
0.1500 0.1500 m
0.1500 0.8500 l
1.1500 0.8500 l
1.1500 0.1500 l
0.1500 0.1500 l
c
s
n
0.6000 0.4000 m
0.6000 0.2480 l
1.0523 0.2480 l
1.0523 0.4000 l
c
[/DeviceRGB] SCS
Color0 SC
fill
[/DeviceRGB] SCS
Color1 SC
n
0.6000 0.4000 m
0.6000 0.2480 l
1.0523 0.2480 l
1.0523 0.4000 l
0.6000 0.4000 l
c
s
/Font21 FFSF
0.6815 0.3708 m
GS
[0.0280 0.0000 0.0000 0.0280 0 0] CC
(Random Forest \(entropy\)) show
GR
[] 0 SD
0.0030 SLW
n
0.6215 0.3773 m
0.6615 0.3773 l
s
n 0.6215 0.3773 0.0100 0.0100 0 360 EARC s
n 0.6615 0.3773 0.0100 0.0100 0 360 EARC s
/Font21 FFSF
0.6815 0.3353 m
GS
[0.0280 0.0000 0.0000 0.0280 0 0] CC
(Random Forest \(gini\)) show
GR
[/DeviceRGB] SCS
Color2 SC
n
0.6215 0.3418 m
0.6615 0.3418 l
s
n 0.6215 0.3418 0.0100 0.0100 0 360 EARC s
n 0.6615 0.3418 0.0100 0.0100 0 360 EARC s
/Font21 FFSF
[/DeviceRGB] SCS
Color1 SC
0.6815 0.2998 m
GS
[0.0280 0.0000 0.0000 0.0280 0 0] CC
(Gradient Boosting \(exponential\)) show
GR
[/DeviceRGB] SCS
Color3 SC
[0.0030 0.0090 0.0150 0.0090 ] 0 SD
0.0030 SLW
n
0.6215 0.3063 m
0.6615 0.3063 l
s
[] 0 SD
0.0030 SLW
n
0.6215 0.3163 m
0.6115 0.3063 l
0.6215 0.2963 l
0.6315 0.3063 l
0.6215 0.3163 l
c
s
n
0.6615 0.3163 m
0.6515 0.3063 l
0.6615 0.2963 l
0.6715 0.3063 l
0.6615 0.3163 l
c
s
/Font21 FFSF
[/DeviceRGB] SCS
Color1 SC
0.6815 0.2643 m
GS
[0.0280 0.0000 0.0000 0.0280 0 0] CC
(Gradient Boosting \(deviance\)) show
GR
[/DeviceRGB] SCS
Color4 SC
[0.0030 0.0090 0.0150 0.0090 ] 0 SD
0.0030 SLW
n
0.6215 0.2708 m
0.6615 0.2708 l
s
[] 0 SD
0.0030 SLW
n
0.6215 0.2808 m
0.6115 0.2708 l
0.6215 0.2608 l
0.6315 0.2708 l
0.6215 0.2808 l
c
s
n
0.6615 0.2808 m
0.6515 0.2708 l
0.6615 0.2608 l
0.6715 0.2708 l
0.6615 0.2808 l
c
s
%%Trailer
%%BoundingBox: 37 54 718 528
%%DocumentNeededResources: font Times-Roman
%%EOF
