<?xml version="1.0" encoding="ISO-8859-1"?>
<!DOCTYPE svg PUBLIC "-//W3C//DTD SVG 1.0//EN" "http://www.w3.org/TR/2001/REC-SVG-20010904/DTD/svg10.dtd">
<!-- generated by Grace-5.1.22 -->
<svg xml:space="preserve" width="11.0000in" height="8.5000in" viewBox="0.0000 0.0000 792.0000 612.0000">
 <g transform="translate(0,612.0000) scale(1,-1)">
  <g style="fill:#FFFFFF; fill-rule:nonzero">
   <path  d="M0.0000,0.0000L0.0000,612.0000L792.0000,612.0000L792.0000,0.0000z"/>
  </g>
  <g style="fill:none; stroke:#000000; stroke-width:  1.8360; stroke-linecap:butt; stroke-linejoin:miter; stroke-dasharray:none">
   <path d="M104.0400,141.9576L116.2800,259.6842L128.5200,303.2252L140.7600,329.8839L153.0000,344.1140L165.2400,351.6556L177.4800,357.4107L189.7200,358.8058L201.9600,365.9748L214.2000,368.3229
            L226.4400,371.4337L238.6800,373.2384L250.9200,375.2510L263.1600,378.0046L275.4000,379.0796L287.6400,381.7821L299.8800,386.0698L312.1200,389.9942L324.3600,391.7410L336.6000,393.4041
            L348.8400,393.5161L361.0800,394.2312L373.3200,393.9753L385.5600,394.0526L397.8000,394.3818L410.0400,394.9344L422.2800,395.3070L434.5200,396.9335L446.7600,397.8483L459.0000,398.0652
            L471.2400,398.5042L483.4800,398.9361L495.7200,398.9273L507.9600,398.1419L520.2000,397.7542L532.4400,398.6800L544.6800,399.3876L556.9200,399.6398L569.1600,400.0894L581.4000,401.0435
            L593.6400,401.4496L605.8800,402.0865L618.1200,402.4956L630.3600,402.3773L642.6000,402.1045L654.8400,402.3570L667.0800,402.8001L679.3200,402.4302L691.5600,402.9459L703.8000,403.2294"/>
   <ellipse  rx="6.1200" ry="6.1200" cx="104.0400" cy="141.9576"/>
   <ellipse  rx="6.1200" ry="6.1200" cx="116.2800" cy="259.6842"/>
   <ellipse  rx="6.1200" ry="6.1200" cx="128.5200" cy="303.2252"/>
   <ellipse  rx="6.1200" ry="6.1200" cx="140.7600" cy="329.8839"/>
   <ellipse  rx="6.1200" ry="6.1200" cx="153.0000" cy="344.1140"/>
   <ellipse  rx="6.1200" ry="6.1200" cx="165.2400" cy="351.6556"/>
   <ellipse  rx="6.1200" ry="6.1200" cx="177.4800" cy="357.4107"/>
   <ellipse  rx="6.1200" ry="6.1200" cx="189.7200" cy="358.8058"/>
   <ellipse  rx="6.1200" ry="6.1200" cx="201.9600" cy="365.9748"/>
   <ellipse  rx="6.1200" ry="6.1200" cx="214.2000" cy="368.3229"/>
   <ellipse  rx="6.1200" ry="6.1200" cx="226.4400" cy="371.4337"/>
   <ellipse  rx="6.1200" ry="6.1200" cx="238.6800" cy="373.2384"/>
   <ellipse  rx="6.1200" ry="6.1200" cx="250.9200" cy="375.2510"/>
   <ellipse  rx="6.1200" ry="6.1200" cx="263.1600" cy="378.0046"/>
   <ellipse  rx="6.1200" ry="6.1200" cx="275.4000" cy="379.0796"/>
   <ellipse  rx="6.1200" ry="6.1200" cx="287.6400" cy="381.7821"/>
   <ellipse  rx="6.1200" ry="6.1200" cx="299.8800" cy="386.0698"/>
   <ellipse  rx="6.1200" ry="6.1200" cx="312.1200" cy="389.9942"/>
   <ellipse  rx="6.1200" ry="6.1200" cx="324.3600" cy="391.7410"/>
   <ellipse  rx="6.1200" ry="6.1200" cx="336.6000" cy="393.4041"/>
   <ellipse  rx="6.1200" ry="6.1200" cx="348.8400" cy="393.5161"/>
   <ellipse  rx="6.1200" ry="6.1200" cx="361.0800" cy="394.2312"/>
   <ellipse  rx="6.1200" ry="6.1200" cx="373.3200" cy="393.9753"/>
   <ellipse  rx="6.1200" ry="6.1200" cx="385.5600" cy="394.0526"/>
   <ellipse  rx="6.1200" ry="6.1200" cx="397.8000" cy="394.3818"/>
   <ellipse  rx="6.1200" ry="6.1200" cx="410.0400" cy="394.9344"/>
   <ellipse  rx="6.1200" ry="6.1200" cx="422.2800" cy="395.3070"/>
   <ellipse  rx="6.1200" ry="6.1200" cx="434.5200" cy="396.9335"/>
   <ellipse  rx="6.1200" ry="6.1200" cx="446.7600" cy="397.8483"/>
   <ellipse  rx="6.1200" ry="6.1200" cx="459.0000" cy="398.0652"/>
   <ellipse  rx="6.1200" ry="6.1200" cx="471.2400" cy="398.5042"/>
   <ellipse  rx="6.1200" ry="6.1200" cx="483.4800" cy="398.9361"/>
   <ellipse  rx="6.1200" ry="6.1200" cx="495.7200" cy="398.9273"/>
   <ellipse  rx="6.1200" ry="6.1200" cx="507.9600" cy="398.1419"/>
   <ellipse  rx="6.1200" ry="6.1200" cx="520.2000" cy="397.7542"/>
   <ellipse  rx="6.1200" ry="6.1200" cx="532.4400" cy="398.6800"/>
   <ellipse  rx="6.1200" ry="6.1200" cx="544.6800" cy="399.3876"/>
   <ellipse  rx="6.1200" ry="6.1200" cx="556.9200" cy="399.6398"/>
   <ellipse  rx="6.1200" ry="6.1200" cx="569.1600" cy="400.0894"/>
   <ellipse  rx="6.1200" ry="6.1200" cx="581.4000" cy="401.0435"/>
   <ellipse  rx="6.1200" ry="6.1200" cx="593.6400" cy="401.4496"/>
   <ellipse  rx="6.1200" ry="6.1200" cx="605.8800" cy="402.0865"/>
   <ellipse  rx="6.1200" ry="6.1200" cx="618.1200" cy="402.4956"/>
   <ellipse  rx="6.1200" ry="6.1200" cx="630.3600" cy="402.3773"/>
   <ellipse  rx="6.1200" ry="6.1200" cx="642.6000" cy="402.1045"/>
   <ellipse  rx="6.1200" ry="6.1200" cx="654.8400" cy="402.3570"/>
   <ellipse  rx="6.1200" ry="6.1200" cx="667.0800" cy="402.8001"/>
   <ellipse  rx="6.1200" ry="6.1200" cx="679.3200" cy="402.4302"/>
   <ellipse  rx="6.1200" ry="6.1200" cx="691.5600" cy="402.9459"/>
   <ellipse  rx="6.1200" ry="6.1200" cx="703.8000" cy="403.2294"/>
  </g>
  <g style="fill:none; stroke:#FF0000; stroke-width:  1.8360; stroke-linecap:butt; stroke-linejoin:miter; stroke-dasharray:none">
   <path d="M104.0400,122.4790L116.2800,250.1906L128.5200,287.7908L140.7600,316.0480L153.0000,332.9920L165.2400,344.2453L177.4800,355.2247L189.7200,359.5327L201.9600,364.6543L214.2000,368.2299
            L226.4400,372.4256L238.6800,376.1098L250.9200,378.1719L263.1600,380.1890L275.4000,382.8125L287.6400,386.5022L299.8800,386.3592L312.1200,386.8275L324.3600,387.2802L336.6000,387.1605
            L348.8400,387.7825L361.0800,386.8725L373.3200,386.4957L385.5600,388.1442L397.8000,387.7818L410.0400,387.6495L422.2800,388.6369L434.5200,389.1289L446.7600,388.9592L459.0000,388.7330
            L471.2400,388.3941L483.4800,388.5397L495.7200,389.4964L507.9600,389.9343L520.2000,390.3514L532.4400,390.7693L544.6800,391.2920L556.9200,391.2386L569.1600,391.6365L581.4000,391.4184
            L593.6400,390.9003L605.8800,390.6471L618.1200,390.9972L630.3600,390.8901L642.6000,391.2334L654.8400,391.6169L667.0800,391.4674L679.3200,391.2519L691.5600,391.2621L703.8000,390.8261"/>
   <ellipse  rx="6.1200" ry="6.1200" cx="104.0400" cy="122.4790"/>
   <ellipse  rx="6.1200" ry="6.1200" cx="116.2800" cy="250.1906"/>
   <ellipse  rx="6.1200" ry="6.1200" cx="128.5200" cy="287.7908"/>
   <ellipse  rx="6.1200" ry="6.1200" cx="140.7600" cy="316.0480"/>
   <ellipse  rx="6.1200" ry="6.1200" cx="153.0000" cy="332.9920"/>
   <ellipse  rx="6.1200" ry="6.1200" cx="165.2400" cy="344.2453"/>
   <ellipse  rx="6.1200" ry="6.1200" cx="177.4800" cy="355.2247"/>
   <ellipse  rx="6.1200" ry="6.1200" cx="189.7200" cy="359.5327"/>
   <ellipse  rx="6.1200" ry="6.1200" cx="201.9600" cy="364.6543"/>
   <ellipse  rx="6.1200" ry="6.1200" cx="214.2000" cy="368.2299"/>
   <ellipse  rx="6.1200" ry="6.1200" cx="226.4400" cy="372.4256"/>
   <ellipse  rx="6.1200" ry="6.1200" cx="238.6800" cy="376.1098"/>
   <ellipse  rx="6.1200" ry="6.1200" cx="250.9200" cy="378.1719"/>
   <ellipse  rx="6.1200" ry="6.1200" cx="263.1600" cy="380.1890"/>
   <ellipse  rx="6.1200" ry="6.1200" cx="275.4000" cy="382.8125"/>
   <ellipse  rx="6.1200" ry="6.1200" cx="287.6400" cy="386.5022"/>
   <ellipse  rx="6.1200" ry="6.1200" cx="299.8800" cy="386.3592"/>
   <ellipse  rx="6.1200" ry="6.1200" cx="312.1200" cy="386.8275"/>
   <ellipse  rx="6.1200" ry="6.1200" cx="324.3600" cy="387.2802"/>
   <ellipse  rx="6.1200" ry="6.1200" cx="336.6000" cy="387.1605"/>
   <ellipse  rx="6.1200" ry="6.1200" cx="348.8400" cy="387.7825"/>
   <ellipse  rx="6.1200" ry="6.1200" cx="361.0800" cy="386.8725"/>
   <ellipse  rx="6.1200" ry="6.1200" cx="373.3200" cy="386.4957"/>
   <ellipse  rx="6.1200" ry="6.1200" cx="385.5600" cy="388.1442"/>
   <ellipse  rx="6.1200" ry="6.1200" cx="397.8000" cy="387.7818"/>
   <ellipse  rx="6.1200" ry="6.1200" cx="410.0400" cy="387.6495"/>
   <ellipse  rx="6.1200" ry="6.1200" cx="422.2800" cy="388.6369"/>
   <ellipse  rx="6.1200" ry="6.1200" cx="434.5200" cy="389.1289"/>
   <ellipse  rx="6.1200" ry="6.1200" cx="446.7600" cy="388.9592"/>
   <ellipse  rx="6.1200" ry="6.1200" cx="459.0000" cy="388.7330"/>
   <ellipse  rx="6.1200" ry="6.1200" cx="471.2400" cy="388.3941"/>
   <ellipse  rx="6.1200" ry="6.1200" cx="483.4800" cy="388.5397"/>
   <ellipse  rx="6.1200" ry="6.1200" cx="495.7200" cy="389.4964"/>
   <ellipse  rx="6.1200" ry="6.1200" cx="507.9600" cy="389.9343"/>
   <ellipse  rx="6.1200" ry="6.1200" cx="520.2000" cy="390.3514"/>
   <ellipse  rx="6.1200" ry="6.1200" cx="532.4400" cy="390.7693"/>
   <ellipse  rx="6.1200" ry="6.1200" cx="544.6800" cy="391.2920"/>
   <ellipse  rx="6.1200" ry="6.1200" cx="556.9200" cy="391.2386"/>
   <ellipse  rx="6.1200" ry="6.1200" cx="569.1600" cy="391.6365"/>
   <ellipse  rx="6.1200" ry="6.1200" cx="581.4000" cy="391.4184"/>
   <ellipse  rx="6.1200" ry="6.1200" cx="593.6400" cy="390.9003"/>
   <ellipse  rx="6.1200" ry="6.1200" cx="605.8800" cy="390.6471"/>
   <ellipse  rx="6.1200" ry="6.1200" cx="618.1200" cy="390.9972"/>
   <ellipse  rx="6.1200" ry="6.1200" cx="630.3600" cy="390.8901"/>
   <ellipse  rx="6.1200" ry="6.1200" cx="642.6000" cy="391.2334"/>
   <ellipse  rx="6.1200" ry="6.1200" cx="654.8400" cy="391.6169"/>
   <ellipse  rx="6.1200" ry="6.1200" cx="667.0800" cy="391.4674"/>
   <ellipse  rx="6.1200" ry="6.1200" cx="679.3200" cy="391.2519"/>
   <ellipse  rx="6.1200" ry="6.1200" cx="691.5600" cy="391.2621"/>
   <ellipse  rx="6.1200" ry="6.1200" cx="703.8000" cy="390.8261"/>
  </g>
  <g style="fill:none; stroke:#00FF00; stroke-width:  1.8360; stroke-linecap:butt; stroke-linejoin:miter; stroke-dasharray: 2 6 9 6">
   <path d="M104.0400,335.0815L116.2800,403.4922L128.5200,420.5543L140.7600,432.1001L153.0000,437.1850L165.2400,441.1368L177.4800,444.3686L189.7200,446.7363L201.9600,448.0174L214.2000,449.4700
            L226.4400,449.4688L238.6800,450.4726L250.9200,451.2796L263.1600,450.3312L275.4000,449.9842L287.6400,449.9801L299.8800,450.2823L312.1200,449.4024L324.3600,450.3402L336.6000,450.0540
            L348.8400,450.0042L361.0800,450.7925L373.3200,450.5049L385.5600,450.4993L397.8000,450.4207L410.0400,450.2129L422.2800,449.9182L434.5200,449.7576L446.7600,449.2308L459.0000,449.7143
            L471.2400,450.0003L483.4800,449.9917L495.7200,449.7658L507.9600,449.4536L520.2000,449.0370L532.4400,447.7600L544.6800,447.6128L556.9200,448.1286L569.1600,448.2645L581.4000,448.1520
            L593.6400,447.1826L605.8800,447.1071L618.1200,445.1157L630.3600,444.6206L642.6000,444.8190L654.8400,444.7089L667.0800,443.8333L679.3200,443.7922L691.5600,444.5152L703.8000,444.1013"/>
  </g>
  <g style="fill:none; stroke:#00FF00; stroke-width:  1.8360; stroke-linecap:butt; stroke-linejoin:miter; stroke-dasharray:none">
   <path d="M104.0400,341.2015L97.9200,335.0815L104.0400,328.9615L110.1600,335.0815z"/>
   <path d="M116.2800,409.6122L110.1600,403.4922L116.2800,397.3722L122.4000,403.4922z"/>
   <path d="M128.5200,426.6743L122.4000,420.5543L128.5200,414.4343L134.6400,420.5543z"/>
   <path d="M140.7600,438.2201L134.6400,432.1001L140.7600,425.9801L146.8800,432.1001z"/>
   <path d="M153.0000,443.3050L146.8800,437.1850L153.0000,431.0650L159.1200,437.1850z"/>
   <path d="M165.2400,447.2568L159.1200,441.1368L165.2400,435.0168L171.3600,441.1368z"/>
   <path d="M177.4800,450.4886L171.3600,444.3686L177.4800,438.2486L183.6000,444.3686z"/>
   <path d="M189.7200,452.8563L183.6000,446.7363L189.7200,440.6163L195.8400,446.7363z"/>
   <path d="M201.9600,454.1374L195.8400,448.0174L201.9600,441.8974L208.0800,448.0174z"/>
   <path d="M214.2000,455.5900L208.0800,449.4700L214.2000,443.3500L220.3200,449.4700z"/>
   <path d="M226.4400,455.5888L220.3200,449.4688L226.4400,443.3488L232.5600,449.4688z"/>
   <path d="M238.6800,456.5926L232.5600,450.4726L238.6800,444.3526L244.8000,450.4726z"/>
   <path d="M250.9200,457.3996L244.8000,451.2796L250.9200,445.1596L257.0400,451.2796z"/>
   <path d="M263.1600,456.4512L257.0400,450.3312L263.1600,444.2112L269.2800,450.3312z"/>
   <path d="M275.4000,456.1042L269.2800,449.9842L275.4000,443.8642L281.5200,449.9842z"/>
   <path d="M287.6400,456.1001L281.5200,449.9801L287.6400,443.8601L293.7600,449.9801z"/>
   <path d="M299.8800,456.4023L293.7600,450.2823L299.8800,444.1623L306.0000,450.2823z"/>
   <path d="M312.1200,455.5224L306.0000,449.4024L312.1200,443.2824L318.2400,449.4024z"/>
   <path d="M324.3600,456.4602L318.2400,450.3402L324.3600,444.2202L330.4800,450.3402z"/>
   <path d="M336.6000,456.1740L330.4800,450.0540L336.6000,443.9340L342.7200,450.0540z"/>
   <path d="M348.8400,456.1242L342.7200,450.0042L348.8400,443.8842L354.9600,450.0042z"/>
   <path d="M361.0800,456.9125L354.9600,450.7925L361.0800,444.6725L367.2000,450.7925z"/>
   <path d="M373.3200,456.6249L367.2000,450.5049L373.3200,444.3849L379.4400,450.5049z"/>
   <path d="M385.5600,456.6193L379.4400,450.4993L385.5600,444.3793L391.6800,450.4993z"/>
   <path d="M397.8000,456.5407L391.6800,450.4207L397.8000,444.3007L403.9200,450.4207z"/>
   <path d="M410.0400,456.3329L403.9200,450.2129L410.0400,444.0929L416.1600,450.2129z"/>
   <path d="M422.2800,456.0382L416.1600,449.9182L422.2800,443.7982L428.4000,449.9182z"/>
   <path d="M434.5200,455.8776L428.4000,449.7576L434.5200,443.6376L440.6400,449.7576z"/>
   <path d="M446.7600,455.3508L440.6400,449.2308L446.7600,443.1108L452.8800,449.2308z"/>
   <path d="M459.0000,455.8343L452.8800,449.7143L459.0000,443.5943L465.1200,449.7143z"/>
   <path d="M471.2400,456.1203L465.1200,450.0003L471.2400,443.8803L477.3600,450.0003z"/>
   <path d="M483.4800,456.1117L477.3600,449.9917L483.4800,443.8717L489.6000,449.9917z"/>
   <path d="M495.7200,455.8858L489.6000,449.7658L495.7200,443.6458L501.8400,449.7658z"/>
   <path d="M507.9600,455.5736L501.8400,449.4536L507.9600,443.3336L514.0800,449.4536z"/>
   <path d="M520.2000,455.1570L514.0800,449.0370L520.2000,442.9170L526.3200,449.0370z"/>
   <path d="M532.4400,453.8800L526.3200,447.7600L532.4400,441.6400L538.5600,447.7600z"/>
   <path d="M544.6800,453.7328L538.5600,447.6128L544.6800,441.4928L550.8000,447.6128z"/>
   <path d="M556.9200,454.2486L550.8000,448.1286L556.9200,442.0086L563.0400,448.1286z"/>
   <path d="M569.1600,454.3845L563.0400,448.2645L569.1600,442.1445L575.2800,448.2645z"/>
   <path d="M581.4000,454.2720L575.2800,448.1520L581.4000,442.0320L587.5200,448.1520z"/>
   <path d="M593.6400,453.3026L587.5200,447.1826L593.6400,441.0626L599.7600,447.1826z"/>
   <path d="M605.8800,453.2271L599.7600,447.1071L605.8800,440.9871L612.0000,447.1071z"/>
   <path d="M618.1200,451.2357L612.0000,445.1157L618.1200,438.9957L624.2400,445.1157z"/>
   <path d="M630.3600,450.7406L624.2400,444.6206L630.3600,438.5006L636.4800,444.6206z"/>
   <path d="M642.6000,450.9390L636.4800,444.8190L642.6000,438.6990L648.7200,444.8190z"/>
   <path d="M654.8400,450.8289L648.7200,444.7089L654.8400,438.5889L660.9600,444.7089z"/>
   <path d="M667.0800,449.9533L660.9600,443.8333L667.0800,437.7133L673.2000,443.8333z"/>
   <path d="M679.3200,449.9122L673.2000,443.7922L679.3200,437.6722L685.4400,443.7922z"/>
   <path d="M691.5600,450.6352L685.4400,444.5152L691.5600,438.3952L697.6800,444.5152z"/>
   <path d="M703.8000,450.2213L697.6800,444.1013L703.8000,437.9813L709.9200,444.1013z"/>
  </g>
  <g style="fill:none; stroke:#0000FF; stroke-width:  1.8360; stroke-linecap:butt; stroke-linejoin:miter; stroke-dasharray: 2 6 9 6">
   <path d="M104.0400,326.0636L116.2800,400.2579L128.5200,415.7814L140.7600,424.2435L153.0000,430.5897L165.2400,436.3122L177.4800,438.7894L189.7200,440.9806L201.9600,443.7961L214.2000,445.8460
            L226.4400,446.0997L238.6800,446.3921L250.9200,447.5626L263.1600,447.1264L275.4000,446.8474L287.6400,447.4176L299.8800,447.8498L312.1200,448.9806L324.3600,448.7550L336.6000,448.5057
            L348.8400,448.3309L361.0800,447.3337L373.3200,447.0217L385.5600,447.6263L397.8000,447.7497L410.0400,447.4532L422.2800,447.2840L434.5200,446.8742L446.7600,447.1627L459.0000,446.7925
            L471.2400,446.8682L483.4800,446.7596L495.7200,446.9552L507.9600,446.9747L520.2000,446.1734L532.4400,446.2578L544.6800,446.7473L556.9200,446.1272L569.1600,445.8496L581.4000,445.7443
            L593.6400,444.7349L605.8800,443.9000L618.1200,443.5704L630.3600,443.3137L642.6000,443.1254L654.8400,443.0225L667.0800,442.6797L679.3200,442.9084L691.5600,442.8520L703.8000,442.7784"/>
  </g>
  <g style="fill:none; stroke:#0000FF; stroke-width:  1.8360; stroke-linecap:butt; stroke-linejoin:miter; stroke-dasharray:none">
   <path d="M104.0400,332.1836L97.9200,326.0636L104.0400,319.9436L110.1600,326.0636z"/>
   <path d="M116.2800,406.3779L110.1600,400.2579L116.2800,394.1379L122.4000,400.2579z"/>
   <path d="M128.5200,421.9014L122.4000,415.7814L128.5200,409.6614L134.6400,415.7814z"/>
   <path d="M140.7600,430.3635L134.6400,424.2435L140.7600,418.1235L146.8800,424.2435z"/>
   <path d="M153.0000,436.7097L146.8800,430.5897L153.0000,424.4697L159.1200,430.5897z"/>
   <path d="M165.2400,442.4322L159.1200,436.3122L165.2400,430.1922L171.3600,436.3122z"/>
   <path d="M177.4800,444.9094L171.3600,438.7894L177.4800,432.6694L183.6000,438.7894z"/>
   <path d="M189.7200,447.1006L183.6000,440.9806L189.7200,434.8606L195.8400,440.9806z"/>
   <path d="M201.9600,449.9161L195.8400,443.7961L201.9600,437.6761L208.0800,443.7961z"/>
   <path d="M214.2000,451.9660L208.0800,445.8460L214.2000,439.7260L220.3200,445.8460z"/>
   <path d="M226.4400,452.2197L220.3200,446.0997L226.4400,439.9797L232.5600,446.0997z"/>
   <path d="M238.6800,452.5121L232.5600,446.3921L238.6800,440.2721L244.8000,446.3921z"/>
   <path d="M250.9200,453.6826L244.8000,447.5626L250.9200,441.4426L257.0400,447.5626z"/>
   <path d="M263.1600,453.2464L257.0400,447.1264L263.1600,441.0064L269.2800,447.1264z"/>
   <path d="M275.4000,452.9674L269.2800,446.8474L275.4000,440.7274L281.5200,446.8474z"/>
   <path d="M287.6400,453.5376L281.5200,447.4176L287.6400,441.2976L293.7600,447.4176z"/>
   <path d="M299.8800,453.9698L293.7600,447.8498L299.8800,441.7298L306.0000,447.8498z"/>
   <path d="M312.1200,455.1006L306.0000,448.9806L312.1200,442.8606L318.2400,448.9806z"/>
   <path d="M324.3600,454.8750L318.2400,448.7550L324.3600,442.6350L330.4800,448.7550z"/>
   <path d="M336.6000,454.6257L330.4800,448.5057L336.6000,442.3857L342.7200,448.5057z"/>
   <path d="M348.8400,454.4509L342.7200,448.3309L348.8400,442.2109L354.9600,448.3309z"/>
   <path d="M361.0800,453.4537L354.9600,447.3337L361.0800,441.2137L367.2000,447.3337z"/>
   <path d="M373.3200,453.1417L367.2000,447.0217L373.3200,440.9017L379.4400,447.0217z"/>
   <path d="M385.5600,453.7463L379.4400,447.6263L385.5600,441.5063L391.6800,447.6263z"/>
   <path d="M397.8000,453.8697L391.6800,447.7497L397.8000,441.6297L403.9200,447.7497z"/>
   <path d="M410.0400,453.5732L403.9200,447.4532L410.0400,441.3332L416.1600,447.4532z"/>
   <path d="M422.2800,453.4040L416.1600,447.2840L422.2800,441.1640L428.4000,447.2840z"/>
   <path d="M434.5200,452.9942L428.4000,446.8742L434.5200,440.7542L440.6400,446.8742z"/>
   <path d="M446.7600,453.2827L440.6400,447.1627L446.7600,441.0427L452.8800,447.1627z"/>
   <path d="M459.0000,452.9125L452.8800,446.7925L459.0000,440.6725L465.1200,446.7925z"/>
   <path d="M471.2400,452.9882L465.1200,446.8682L471.2400,440.7482L477.3600,446.8682z"/>
   <path d="M483.4800,452.8796L477.3600,446.7596L483.4800,440.6396L489.6000,446.7596z"/>
   <path d="M495.7200,453.0752L489.6000,446.9552L495.7200,440.8352L501.8400,446.9552z"/>
   <path d="M507.9600,453.0947L501.8400,446.9747L507.9600,440.8547L514.0800,446.9747z"/>
   <path d="M520.2000,452.2934L514.0800,446.1734L520.2000,440.0534L526.3200,446.1734z"/>
   <path d="M532.4400,452.3778L526.3200,446.2578L532.4400,440.1378L538.5600,446.2578z"/>
   <path d="M544.6800,452.8673L538.5600,446.7473L544.6800,440.6273L550.8000,446.7473z"/>
   <path d="M556.9200,452.2472L550.8000,446.1272L556.9200,440.0072L563.0400,446.1272z"/>
   <path d="M569.1600,451.9696L563.0400,445.8496L569.1600,439.7296L575.2800,445.8496z"/>
   <path d="M581.4000,451.8643L575.2800,445.7443L581.4000,439.6243L587.5200,445.7443z"/>
   <path d="M593.6400,450.8549L587.5200,444.7349L593.6400,438.6149L599.7600,444.7349z"/>
   <path d="M605.8800,450.0200L599.7600,443.9000L605.8800,437.7800L612.0000,443.9000z"/>
   <path d="M618.1200,449.6904L612.0000,443.5704L618.1200,437.4504L624.2400,443.5704z"/>
   <path d="M630.3600,449.4337L624.2400,443.3137L630.3600,437.1937L636.4800,443.3137z"/>
   <path d="M642.6000,449.2454L636.4800,443.1254L642.6000,437.0054L648.7200,443.1254z"/>
   <path d="M654.8400,449.1425L648.7200,443.0225L654.8400,436.9025L660.9600,443.0225z"/>
   <path d="M667.0800,448.7997L660.9600,442.6797L667.0800,436.5597L673.2000,442.6797z"/>
   <path d="M679.3200,449.0284L673.2000,442.9084L679.3200,436.7884L685.4400,442.9084z"/>
   <path d="M691.5600,448.9720L685.4400,442.8520L691.5600,436.7320L697.6800,442.8520z"/>
   <path d="M703.8000,448.8984L697.6800,442.7784L703.8000,436.6584L709.9200,442.7784z"/>
  </g>
  <g style="fill:none; stroke:#000000; stroke-width:  0.9180; stroke-linecap:butt; stroke-linejoin:miter; stroke-dasharray:none">
   <path d="M91.8000,91.8000L703.8000,91.8000"/>
   <path d="M91.8000,520.2000L703.8000,520.2000"/>
   <path d="M153.0000,91.8000L153.0000,97.9200"/>
   <path d="M153.0000,520.2000L153.0000,514.0800"/>
   <path d="M275.4000,91.8000L275.4000,97.9200"/>
   <path d="M275.4000,520.2000L275.4000,514.0800"/>
   <path d="M397.8000,91.8000L397.8000,97.9200"/>
   <path d="M397.8000,520.2000L397.8000,514.0800"/>
   <path d="M520.2000,91.8000L520.2000,97.9200"/>
   <path d="M520.2000,520.2000L520.2000,514.0800"/>
   <path d="M642.6000,91.8000L642.6000,97.9200"/>
   <path d="M642.6000,520.2000L642.6000,514.0800"/>
   <path d="M91.8000,91.8000L91.8000,104.0400"/>
   <path d="M91.8000,520.2000L91.8000,507.9600"/>
   <path d="M214.2000,91.8000L214.2000,104.0400"/>
   <path d="M214.2000,520.2000L214.2000,507.9600"/>
   <path d="M336.6000,91.8000L336.6000,104.0400"/>
   <path d="M336.6000,520.2000L336.6000,507.9600"/>
   <path d="M459.0000,91.8000L459.0000,104.0400"/>
   <path d="M459.0000,520.2000L459.0000,507.9600"/>
   <path d="M581.4000,91.8000L581.4000,104.0400"/>
   <path d="M581.4000,520.2000L581.4000,507.9600"/>
   <path d="M703.8000,91.8000L703.8000,104.0400"/>
   <path d="M703.8000,520.2000L703.8000,507.9600"/>
  </g>
  <g style="fill:#000000; fill-rule:nonzero">
   <text   style="font-family:'Times','Nimbus Roman No9 L'; font-style:normal; font-weight:normal; font-size:612.0000" transform="matrix(0.0280,0.0000,-0.0000,-0.0280,87.8000,74.6800)">0</text>
   <text   style="font-family:'Times','Nimbus Roman No9 L'; font-style:normal; font-weight:normal; font-size:612.0000" transform="matrix(0.0280,0.0000,-0.0000,-0.0280,201.7000,73.6800)">100</text>
   <text   style="font-family:'Times','Nimbus Roman No9 L'; font-style:normal; font-weight:normal; font-size:612.0000" transform="matrix(0.0280,0.0000,-0.0000,-0.0280,324.1000,74.6800)">200</text>
   <text   style="font-family:'Times','Nimbus Roman No9 L'; font-style:normal; font-weight:normal; font-size:612.0000" transform="matrix(0.0280,0.0000,-0.0000,-0.0280,446.5000,74.6800)">300</text>
   <text   style="font-family:'Times','Nimbus Roman No9 L'; font-style:normal; font-weight:normal; font-size:612.0000" transform="matrix(0.0280,0.0000,-0.0000,-0.0280,568.9000,74.6800)">400</text>
   <text   style="font-family:'Times','Nimbus Roman No9 L'; font-style:normal; font-weight:normal; font-size:612.0000" transform="matrix(0.0280,0.0000,-0.0000,-0.0280,691.3000,73.6800)">500</text>
   <text   style="font-family:'Times','Nimbus Roman No9 L'; font-style:normal; font-weight:normal; font-size:612.0000" transform="matrix(0.0280,0.0000,-0.0000,-0.0280,342.3000,55.5600)">Number of trees</text>
  </g>
  <g style="fill:none; stroke:#000000; stroke-width:  0.9180; stroke-linecap:butt; stroke-linejoin:miter; stroke-dasharray:none">
   <path d="M91.8000,91.8000L91.8000,520.2000"/>
   <path d="M703.8000,91.8000L703.8000,520.2000"/>
   <path d="M91.8000,134.6400L97.9200,134.6400"/>
   <path d="M703.8000,134.6400L697.6800,134.6400"/>
   <path d="M91.8000,220.3200L97.9200,220.3200"/>
   <path d="M703.8000,220.3200L697.6800,220.3200"/>
   <path d="M91.8000,306.0000L97.9200,306.0000"/>
   <path d="M703.8000,306.0000L697.6800,306.0000"/>
   <path d="M91.8000,391.6800L97.9200,391.6800"/>
   <path d="M703.8000,391.6800L697.6800,391.6800"/>
   <path d="M91.8000,477.3600L97.9200,477.3600"/>
   <path d="M703.8000,477.3600L697.6800,477.3600"/>
   <path d="M91.8000,91.8000L104.0400,91.8000"/>
   <path d="M703.8000,91.8000L691.5600,91.8000"/>
   <path d="M91.8000,177.4800L104.0400,177.4800"/>
   <path d="M703.8000,177.4800L691.5600,177.4800"/>
   <path d="M91.8000,263.1600L104.0400,263.1600"/>
   <path d="M703.8000,263.1600L691.5600,263.1600"/>
   <path d="M91.8000,348.8400L104.0400,348.8400"/>
   <path d="M703.8000,348.8400L691.5600,348.8400"/>
   <path d="M91.8000,434.5200L104.0400,434.5200"/>
   <path d="M703.8000,434.5200L691.5600,434.5200"/>
   <path d="M91.8000,520.2000L104.0400,520.2000"/>
   <path d="M703.8000,520.2000L691.5600,520.2000"/>
  </g>
  <g style="fill:#000000; fill-rule:nonzero">
   <text   style="font-family:'Times','Nimbus Roman No9 L'; font-style:normal; font-weight:normal; font-size:612.0000" transform="matrix(0.0280,0.0000,-0.0000,-0.0280,56.6800,86.3000)">0.84</text>
   <text   style="font-family:'Times','Nimbus Roman No9 L'; font-style:normal; font-weight:normal; font-size:612.0000" transform="matrix(0.0280,0.0000,-0.0000,-0.0280,56.6800,171.4800)">0.85</text>
   <text   style="font-family:'Times','Nimbus Roman No9 L'; font-style:normal; font-weight:normal; font-size:612.0000" transform="matrix(0.0280,0.0000,-0.0000,-0.0280,56.6800,257.1600)">0.86</text>
   <text   style="font-family:'Times','Nimbus Roman No9 L'; font-style:normal; font-weight:normal; font-size:612.0000" transform="matrix(0.0280,0.0000,-0.0000,-0.0280,56.6800,343.3400)">0.87</text>
   <text   style="font-family:'Times','Nimbus Roman No9 L'; font-style:normal; font-weight:normal; font-size:612.0000" transform="matrix(0.0280,0.0000,-0.0000,-0.0280,56.6800,429.0200)">0.88</text>
   <text   style="font-family:'Times','Nimbus Roman No9 L'; font-style:normal; font-weight:normal; font-size:612.0000" transform="matrix(0.0280,0.0000,-0.0000,-0.0280,56.6800,514.7000)">0.89</text>
   <text   style="font-family:'Times','Nimbus Roman No9 L'; font-style:normal; font-weight:normal; font-size:612.0000" transform="matrix(0.0000,0.0280,0.0280,-0.0000,50.5600,268.5000)">ROC AUC</text>
  </g>
  <g style="fill:none; stroke:#000000; stroke-width:  0.9180; stroke-linecap:butt; stroke-linejoin:miter; stroke-dasharray:none">
   <path d="M91.8000,91.8000L91.8000,520.2000L703.8000,520.2000L703.8000,91.8000z"/>
  </g>
  <g style="fill:#FFFFFF; fill-rule:nonzero">
   <path  d="M367.2000,244.8000L367.2000,150.2000L644.1980,150.2000L644.1980,244.8000z"/>
  </g>
  <g style="fill:none; stroke:#000000; stroke-width:  0.9180; stroke-linecap:butt; stroke-linejoin:miter; stroke-dasharray:none">
   <path d="M367.2000,244.8000L367.2000,150.2000L644.1980,150.2000L644.1980,244.8000z"/>
  </g>
  <g style="fill:#000000; fill-rule:nonzero">
   <text   style="font-family:'Times','Nimbus Roman No9 L'; font-style:normal; font-weight:normal; font-size:612.0000" transform="matrix(0.0280,0.0000,-0.0000,-0.0280,417.0780,226.6800)">Random Forest (entropy)</text>
  </g>
  <g style="fill:none; stroke:#000000; stroke-width:  1.8360; stroke-linecap:butt; stroke-linejoin:miter; stroke-dasharray:none">
   <path d="M380.3580,230.6800L404.8380,230.6800"/>
   <ellipse  rx="6.1200" ry="6.1200" cx="380.3580" cy="230.6800"/>
   <ellipse  rx="6.1200" ry="6.1200" cx="404.8380" cy="230.6800"/>
  </g>
  <g style="fill:#000000; fill-rule:nonzero">
   <text   style="font-family:'Times','Nimbus Roman No9 L'; font-style:normal; font-weight:normal; font-size:612.0000" transform="matrix(0.0280,0.0000,-0.0000,-0.0280,417.0780,204.5600)">Random Forest (gini)</text>
  </g>
  <g style="fill:none; stroke:#FF0000; stroke-width:  1.8360; stroke-linecap:butt; stroke-linejoin:miter; stroke-dasharray:none">
   <path d="M380.3580,208.5600L404.8380,208.5600"/>
   <ellipse  rx="6.1200" ry="6.1200" cx="380.3580" cy="208.5600"/>
   <ellipse  rx="6.1200" ry="6.1200" cx="404.8380" cy="208.5600"/>
  </g>
  <g style="fill:#000000; fill-rule:nonzero">
   <text   style="font-family:'Times','Nimbus Roman No9 L'; font-style:normal; font-weight:normal; font-size:612.0000" transform="matrix(0.0280,0.0000,-0.0000,-0.0280,417.0780,182.4400)">Gradient Boosting (exponential)</text>
  </g>
  <g style="fill:none; stroke:#00FF00; stroke-width:  1.8360; stroke-linecap:butt; stroke-linejoin:miter; stroke-dasharray: 2 6 9 6">
   <path d="M380.3580,186.4400L404.8380,186.4400"/>
  </g>
  <g style="fill:none; stroke:#00FF00; stroke-width:  1.8360; stroke-linecap:butt; stroke-linejoin:miter; stroke-dasharray:none">
   <path d="M380.3580,192.5600L374.2380,186.4400L380.3580,180.3200L386.4780,186.4400z"/>
   <path d="M404.8380,192.5600L398.7180,186.4400L404.8380,180.3200L410.9580,186.4400z"/>
  </g>
  <g style="fill:#000000; fill-rule:nonzero">
   <text   style="font-family:'Times','Nimbus Roman No9 L'; font-style:normal; font-weight:normal; font-size:612.0000" transform="matrix(0.0280,0.0000,-0.0000,-0.0280,417.0780,160.3200)">Gradient Boosting (deviance)</text>
  </g>
  <g style="fill:none; stroke:#0000FF; stroke-width:  1.8360; stroke-linecap:butt; stroke-linejoin:miter; stroke-dasharray: 2 6 9 6">
   <path d="M380.3580,164.3200L404.8380,164.3200"/>
  </g>
  <g style="fill:none; stroke:#0000FF; stroke-width:  1.8360; stroke-linecap:butt; stroke-linejoin:miter; stroke-dasharray:none">
   <path d="M380.3580,170.4400L374.2380,164.3200L380.3580,158.2000L386.4780,164.3200z"/>
   <path d="M404.8380,170.4400L398.7180,164.3200L404.8380,158.2000L410.9580,164.3200z"/>
  </g>
 </g>
</svg>
